RISC-V_pipeline/evidence/logs/top_tb_class_xsim.log
#-----------------------------------------------------------
# xsim v2025.2 (64-bit)
# SW Build 6299465 on Fri Nov 14 19:35:11 GMT 2025
# IP Build 6300035 on Fri Nov 14 10:48:45 MST 2025
# SharedData Build 6298862 on Thu Nov 13 04:50:51 MST 2025
# Start of session at: Fri Mar 27 16:57:42 2026
# Process ID         : 15456
# Current directory  : D:/02_learning_lab/RV32I_PIPELINE_ONLY/FPGA_Auto_Project/Project/rv32i
# Command line       : xsim.exe -log tb\Top_tb\xsim_tb_top_class.log -mode tcl -source {xsim.dir/tb_top_class_behav/xsim_script.tcl}
# Log file           : D:/02_learning_lab/RV32I_PIPELINE_ONLY/FPGA_Auto_Project/Project/rv32i/tb/Top_tb/xsim_tb_top_class.log
# Journal file       : D:/02_learning_lab/RV32I_PIPELINE_ONLY/FPGA_Auto_Project/Project/rv32i\xsim.jou
# Running On         : DESKTOP-7CFQ9ND
# Platform           : Windows Server 2016 or Windows 10
# Operating System   : 26200
# Processor Detail   : 12th Gen Intel(R) Core(TM) i7-1260P
# CPU Frequency      : 2496 MHz
# CPU Physical cores : 12
# CPU Logical cores  : 16
# Host memory        : 16847 MB
# Swap memory        : 17179 MB
# Total Virtual      : 34027 MB
# Available Virtual  : 6796 MB
#-----------------------------------------------------------
source xsim.dir/tb_top_class_behav/xsim_script.tcl
# xsim {tb_top_class_behav} -autoloadwcfg -runall
Time resolution is 1 ps
run -all
[INFO] InstrRom loaded D:/02_learning_lab/RV32I_PIPELINE_ONLY/FPGA_Auto_Project/Project/rv32i/src/mem/InstructionSpikeTop.mem
[95000][TB][INFO] SCB TRACE #1/490 : step=0 cycle=5 pc=0x80000000 inst=0x00010117 regwr=1 rd=x2 rd_data=0x80010000 memwr=0 mem_addr=0x80010000 mem_data=0x00000000 illegal=0 stall=0 redirect=0 fwdA=0 fwdB=0 class=AUIPC
[95000][TB][INFO] SCB PASS #1
[105000][TB][INFO] SCB TRACE #2/490 : step=1 cycle=6 pc=0x80000004 inst=0x00010113 regwr=1 rd=x2 rd_data=0x80010000 memwr=0 mem_addr=0x80010000 mem_data=0x00000000 illegal=0 stall=0 redirect=0 fwdA=0 fwdB=0 class=ALUI
[105000][TB][INFO] SCB PASS #2
[115000][TB][INFO] SCB TRACE #3/490 : step=2 cycle=7 pc=0x80000008 inst=0x008000ef regwr=1 rd=x1 rd_data=0x8000000c memwr=0 mem_addr=0x00000000 mem_data=0x00000000 illegal=0 stall=0 redirect=0 fwdA=0 fwdB=0 class=JAL
[115000][TB][INFO] SCB PASS #3
[145000][TB][INFO] SCB TRACE #4/490 : step=3 cycle=10 pc=0x80000010 inst=0xfe010113 regwr=1 rd=x2 rd_data=0x8000ffe0 memwr=0 mem_addr=0x8000ffe0 mem_data=0x00000000 illegal=0 stall=0 redirect=0 fwdA=2 fwdB=0 class=ALUI
[145000][TB][INFO] SCB PASS #4
[155000][TB][INFO] SCB TRACE #5/490 : step=4 cycle=11 pc=0x80000014 inst=0x00812e23 regwr=0 rd=x28 rd_data=0x8000fffc memwr=1 mem_addr=0x8000fffc mem_data=0x00000000 illegal=0 stall=0 redirect=1 fwdA=0 fwdB=0 class=STORE
[155000][TB][INFO] SCB PASS #5
[165000][TB][INFO] SCB TRACE #6/490 : step=5 cycle=12 pc=0x80000018 inst=0x02010413 regwr=1 rd=x8 rd_data=0x80010000 memwr=0 mem_addr=0x80010000 mem_data=0x00000000 illegal=0 stall=0 redirect=0 fwdA=0 fwdB=0 class=ALUI
[165000][TB][INFO] SCB PASS #6
[175000][TB][INFO] SCB TRACE #7/490 : step=6 cycle=13 pc=0x8000001c inst=0xfe042623 regwr=0 rd=x12 rd_data=0x8000ffec memwr=1 mem_addr=0x8000ffec mem_data=0x00000000 illegal=0 stall=0 redirect=0 fwdA=0 fwdB=0 class=STORE
[175000][TB][INFO] SCB PASS #7
[185000][TB][INFO] SCB TRACE #8/490 : step=7 cycle=14 pc=0x80000020 inst=0x0e00006f regwr=1 rd=x0 rd_data=0x80000024 memwr=0 mem_addr=0x00000000 mem_data=0x00000000 illegal=0 stall=0 redirect=0 fwdA=0 fwdB=0 class=JAL
[185000][TB][INFO] SCB PASS #8
[215000][TB][INFO] SCB TRACE #9/490 : step=8 cycle=17 pc=0x80000100 inst=0xfec42703 regwr=1 rd=x14 rd_data=0x00000000 memwr=0 mem_addr=0x8000ffec mem_data=0x00000000 illegal=0 stall=0 redirect=0 fwdA=0 fwdB=0 class=LOAD
[215000][TB][INFO] SCB PASS #9
[225000][TB][INFO] SCB TRACE #10/490 : step=9 cycle=18 pc=0x80000104 inst=0x00300793 regwr=1 rd=x15 rd_data=0x00000003 memwr=0 mem_addr=0x00000003 mem_data=0x00000000 illegal=0 stall=0 redirect=0 fwdA=0 fwdB=0 class=ALUI
[225000][TB][INFO] SCB PASS #10
[235000][TB][INFO] SCB TRACE #11/490 : step=10 cycle=19 pc=0x80000108 inst=0xf0e7dee3 regwr=0 rd=x29 rd_data=0x00000003 memwr=0 mem_addr=0x00000003 mem_data=0x00000000 illegal=0 stall=0 redirect=0 fwdA=0 fwdB=0 class=BRANCH
[235000][TB][INFO] SCB PASS #11
[265000][TB][INFO] SCB TRACE #12/490 : step=11 cycle=22 pc=0x80000024 inst=0xfe042423 regwr=0 rd=x8 rd_data=0x8000ffe8 memwr=1 mem_addr=0x8000ffe8 mem_data=0x00000000 illegal=0 stall=0 redirect=0 fwdA=0 fwdB=0 class=STORE
[265000][TB][INFO] SCB PASS #12
[275000][TB][INFO] SCB TRACE #13/490 : step=12 cycle=23 pc=0x80000028 inst=0x0b80006f regwr=1 rd=x0 rd_data=0x8000002c memwr=0 mem_addr=0x00000000 mem_data=0x00000000 illegal=0 stall=0 redirect=0 fwdA=0 fwdB=0 class=JAL
[275000][TB][INFO] SCB PASS #13
[305000][TB][INFO] SCB TRACE #14/490 : step=13 cycle=26 pc=0x800000e0 inst=0x00400713 regwr=1 rd=x14 rd_data=0x00000004 memwr=0 mem_addr=0x00000004 mem_data=0x00000000 illegal=0 stall=0 redirect=0 fwdA=0 fwdB=1 class=ALUI
[305000][TB][INFO] SCB PASS #14
[315000][TB][INFO] SCB TRACE #15/490 : step=14 cycle=27 pc=0x800000e4 inst=0xfec42783 regwr=1 rd=x15 rd_data=0x00000000 memwr=0 mem_addr=0x8000ffec mem_data=0x00000000 illegal=0 stall=1 redirect=0 fwdA=0 fwdB=0 class=LOAD
[315000][TB][INFO] SCB PASS #15
[335000][TB][INFO] SCB TRACE #16/490 : step=15 cycle=29 pc=0x800000e8 inst=0x40f707b3 regwr=1 rd=x15 rd_data=0x00000004 memwr=0 mem_addr=0x00000004 mem_data=0x00000000 illegal=0 stall=0 redirect=1 fwdA=1 fwdB=0 class=ALUR
[335000][TB][INFO] SCB PASS #16
[345000][TB][INFO] SCB TRACE #17/490 : step=16 cycle=30 pc=0x800000ec inst=0xfe842703 regwr=1 rd=x14 rd_data=0x00000000 memwr=0 mem_addr=0x8000ffe8 mem_data=0x80010000 illegal=0 stall=0 redirect=0 fwdA=0 fwdB=0 class=LOAD
[345000][TB][INFO] SCB PASS #17
[365000][TB][INFO] SCB TRACE #18/490 : step=17 cycle=32 pc=0x800000f0 inst=0xf2f74ee3 regwr=0 rd=x29 rd_data=0x00000004 memwr=0 mem_addr=0x00000004 mem_data=0x00000004 illegal=0 stall=0 redirect=0 fwdA=0 fwdB=0 class=BRANCH
[365000][TB][INFO] SCB PASS #18
[395000][TB][INFO] SCB TRACE #19/490 : step=18 cycle=35 pc=0x8000002c inst=0x800007b7 regwr=1 rd=x15 rd_data=0x80000000 memwr=0 mem_addr=0x80000000 mem_data=0x00000000 illegal=0 stall=0 redirect=0 fwdA=0 fwdB=0 class=LUI
[395000][TB][INFO] SCB PASS #19
[405000][TB][INFO] SCB TRACE #20/490 : step=19 cycle=36 pc=0x80000030 inst=0x13478713 regwr=1 rd=x14 rd_data=0x80000134 memwr=0 mem_addr=0x80000134 mem_data=0x00000000 illegal=0 stall=0 redirect=0 fwdA=1 fwdB=0 class=ALUI
[405000][TB][INFO] SCB PASS #20
[415000][TB][INFO] SCB TRACE #21/490 : step=20 cycle=37 pc=0x80000034 inst=0xfe842783 regwr=1 rd=x15 rd_data=0x00000000 memwr=0 mem_addr=0x8000ffe8 mem_data=0x80010000 illegal=0 stall=0 redirect=0 fwdA=0 fwdB=2 class=LOAD
[415000][TB][INFO] SCB PASS #21
[435000][TB][INFO] SCB TRACE #22/490 : step=21 cycle=39 pc=0x80000038 inst=0x00279793 regwr=1 rd=x15 rd_data=0x00000000 memwr=0 mem_addr=0x00000000 mem_data=0x8000ffe0 illegal=0 stall=1 redirect=0 fwdA=0 fwdB=0 class=ALUI
[435000][TB][INFO] SCB PASS #22
[445000][TB][INFO] SCB TRACE #23/490 : step=22 cycle=40 pc=0x8000003c inst=0x00f707b3 regwr=1 rd=x15 rd_data=0x80000134 memwr=0 mem_addr=0x80000134 mem_data=0x00000000 illegal=0 stall=0 redirect=0 fwdA=0 fwdB=0 class=ALUR
[445000][TB][INFO] SCB PASS #23
[455000][TB][INFO] SCB TRACE #24/490 : step=23 cycle=41 pc=0x80000040 inst=0x0007a703 regwr=1 rd=x14 rd_data=0x00000009 memwr=0 mem_addr=0x80000134 mem_data=0x00000000 illegal=0 stall=0 redirect=0 fwdA=1 fwdB=0 class=LOAD
[455000][TB][INFO] SCB PASS #24
[465000][TB][INFO] SCB TRACE #25/490 : step=24 cycle=42 pc=0x80000044 inst=0xfe842783 regwr=1 rd=x15 rd_data=0x00000000 memwr=0 mem_addr=0x8000ffe8 mem_data=0x80010000 illegal=0 stall=0 redirect=0 fwdA=0 fwdB=0 class=LOAD
[465000][TB][INFO] SCB PASS #25
[485000][TB][INFO] SCB TRACE #26/490 : step=25 cycle=44 pc=0x80000048 inst=0x00178793 regwr=1 rd=x15 rd_data=0x00000001 memwr=0 mem_addr=0x00000001 mem_data=0x8000000c illegal=0 stall=0 redirect=0 fwdA=0 fwdB=0 class=ALUI
[485000][TB][INFO] SCB PASS #26
[495000][TB][INFO] SCB TRACE #27/490 : step=26 cycle=45 pc=0x8000004c inst=0x800006b7 regwr=1 rd=x13 rd_data=0x80000000 memwr=0 mem_addr=0x80000000 mem_data=0x00000000 illegal=0 stall=0 redirect=0 fwdA=1 fwdB=2 class=LUI
[495000][TB][INFO] SCB PASS #27
[505000][TB][INFO] SCB TRACE #28/490 : step=27 cycle=46 pc=0x80000050 inst=0x13468693 regwr=1 rd=x13 rd_data=0x80000134 memwr=0 mem_addr=0x80000134 mem_data=0x00000000 illegal=0 stall=1 redirect=0 fwdA=2 fwdB=0 class=ALUI
[505000][TB][INFO] SCB PASS #28
[515000][TB][INFO] SCB TRACE #29/490 : step=28 cycle=47 pc=0x80000054 inst=0x00279793 regwr=1 rd=x15 rd_data=0x00000004 memwr=0 mem_addr=0x00000004 mem_data=0x8000ffe0 illegal=0 stall=0 redirect=0 fwdA=0 fwdB=0 class=ALUI
[515000][TB][INFO] SCB PASS #29
[525000][TB][INFO] SCB TRACE #30/490 : step=29 cycle=48 pc=0x80000058 inst=0x00f687b3 regwr=1 rd=x15 rd_data=0x80000138 memwr=0 mem_addr=0x80000138 mem_data=0x00000004 illegal=0 stall=0 redirect=0 fwdA=1 fwdB=0 class=ALUR
[525000][TB][INFO] SCB PASS #30
[535000][TB][INFO] SCB TRACE #31/490 : step=30 cycle=49 pc=0x8000005c inst=0x0007a783 regwr=1 rd=x15 rd_data=0x00000003 memwr=0 mem_addr=0x80000138 mem_data=0x00000000 illegal=0 stall=0 redirect=0 fwdA=0 fwdB=0 class=LOAD
[535000][TB][INFO] SCB PASS #31
[555000][TB][INFO] SCB TRACE #32/490 : step=31 cycle=51 pc=0x80000060 inst=0x06e7da63 regwr=0 rd=x20 rd_data=0x0000000c memwr=0 mem_addr=0x0000000c mem_data=0x00000009 illegal=0 stall=1 redirect=0 fwdA=0 fwdB=0 class=BRANCH
[555000][TB][INFO] SCB PASS #32
[565000][TB][INFO] SCB TRACE #33/490 : step=32 cycle=52 pc=0x80000064 inst=0x800007b7 regwr=1 rd=x15 rd_data=0x80000000 memwr=0 mem_addr=0x80000000 mem_data=0x00000000 illegal=0 stall=0 redirect=0 fwdA=0 fwdB=0 class=LUI
[565000][TB][INFO] SCB PASS #33
[575000][TB][INFO] SCB TRACE #34/490 : step=33 cycle=53 pc=0x80000068 inst=0x13478713 regwr=1 rd=x14 rd_data=0x80000134 memwr=0 mem_addr=0x80000134 mem_data=0x00000000 illegal=0 stall=0 redirect=0 fwdA=1 fwdB=0 class=ALUI
[575000][TB][INFO] SCB PASS #34
[585000][TB][INFO] SCB TRACE #35/490 : step=34 cycle=54 pc=0x8000006c inst=0xfe842783 regwr=1 rd=x15 rd_data=0x00000000 memwr=0 mem_addr=0x8000ffe8 mem_data=0x80010000 illegal=0 stall=0 redirect=0 fwdA=0 fwdB=2 class=LOAD
[585000][TB][INFO] SCB PASS #35
[605000][TB][INFO] SCB TRACE #36/490 : step=35 cycle=56 pc=0x80000070 inst=0x00279793 regwr=1 rd=x15 rd_data=0x00000000 memwr=0 mem_addr=0x00000000 mem_data=0x8000ffe0 illegal=0 stall=0 redirect=0 fwdA=0 fwdB=0 class=ALUI
[605000][TB][INFO] SCB PASS #36
[615000][TB][INFO] SCB TRACE #37/490 : step=36 cycle=57 pc=0x80000074 inst=0x00f707b3 regwr=1 rd=x15 rd_data=0x80000134 memwr=0 mem_addr=0x80000134 mem_data=0x00000000 illegal=0 stall=0 redirect=0 fwdA=0 fwdB=1 class=ALUR
[615000][TB][INFO] SCB PASS #37
[625000][TB][INFO] SCB TRACE #38/490 : step=37 cycle=58 pc=0x80000078 inst=0x0007a783 regwr=1 rd=x15 rd_data=0x00000009 memwr=0 mem_addr=0x80000134 mem_data=0x00000000 illegal=0 stall=1 redirect=0 fwdA=0 fwdB=0 class=LOAD
[625000][TB][INFO] SCB PASS #38
[645000][TB][INFO] SCB TRACE #39/490 : step=38 cycle=60 pc=0x8000007c inst=0xfef42223 regwr=0 rd=x4 rd_data=0x8000ffe4 memwr=1 mem_addr=0x8000ffe4 mem_data=0x00000009 illegal=0 stall=0 redirect=0 fwdA=1 fwdB=0 class=STORE
[645000][TB][INFO] SCB PASS #39
[655000][TB][INFO] SCB TRACE #40/490 : step=39 cycle=61 pc=0x80000080 inst=0xfe842783 regwr=1 rd=x15 rd_data=0x00000000 memwr=0 mem_addr=0x8000ffe8 mem_data=0x80010000 illegal=0 stall=0 redirect=0 fwdA=0 fwdB=0 class=LOAD
[655000][TB][INFO] SCB PASS #40
[675000][TB][INFO] SCB TRACE #41/490 : step=40 cycle=63 pc=0x80000084 inst=0x00178793 regwr=1 rd=x15 rd_data=0x00000001 memwr=0 mem_addr=0x00000001 mem_data=0x8000000c illegal=0 stall=0 redirect=0 fwdA=0 fwdB=0 class=ALUI
[675000][TB][INFO] SCB PASS #41
[685000][TB][INFO] SCB TRACE #42/490 : step=41 cycle=64 pc=0x80000088 inst=0x80000737 regwr=1 rd=x14 rd_data=0x80000000 memwr=0 mem_addr=0x80000000 mem_data=0x00000000 illegal=0 stall=0 redirect=0 fwdA=1 fwdB=2 class=LUI
[685000][TB][INFO] SCB PASS #42
[695000][TB][INFO] SCB TRACE #43/490 : step=42 cycle=65 pc=0x8000008c inst=0x13470713 regwr=1 rd=x14 rd_data=0x80000134 memwr=0 mem_addr=0x80000134 mem_data=0x00000000 illegal=0 stall=0 redirect=0 fwdA=2 fwdB=0 class=ALUI
[695000][TB][INFO] SCB PASS #43
[705000][TB][INFO] SCB TRACE #44/490 : step=43 cycle=66 pc=0x80000090 inst=0x00279793 regwr=1 rd=x15 rd_data=0x00000004 memwr=0 mem_addr=0x00000004 mem_data=0x8000ffe0 illegal=0 stall=0 redirect=0 fwdA=0 fwdB=0 class=ALUI
[705000][TB][INFO] SCB PASS #44
[715000][TB][INFO] SCB TRACE #45/490 : step=44 cycle=67 pc=0x80000094 inst=0x00f707b3 regwr=1 rd=x15 rd_data=0x80000138 memwr=0 mem_addr=0x80000138 mem_data=0x00000004 illegal=0 stall=0 redirect=0 fwdA=2 fwdB=0 class=ALUR
[715000][TB][INFO] SCB PASS #45
[725000][TB][INFO] SCB TRACE #46/490 : step=45 cycle=68 pc=0x80000098 inst=0x0007a703 regwr=1 rd=x14 rd_data=0x00000003 memwr=0 mem_addr=0x80000138 mem_data=0x00000000 illegal=0 stall=1 redirect=0 fwdA=0 fwdB=0 class=LOAD
[725000][TB][INFO] SCB PASS #46
[735000][TB][INFO] SCB TRACE #47/490 : step=46 cycle=69 pc=0x8000009c inst=0x800007b7 regwr=1 rd=x15 rd_data=0x80000000 memwr=0 mem_addr=0x80000000 mem_data=0x00000000 illegal=0 stall=0 redirect=0 fwdA=0 fwdB=0 class=LUI
[735000][TB][INFO] SCB PASS #47
[745000][TB][INFO] SCB TRACE #48/490 : step=47 cycle=70 pc=0x800000a0 inst=0x13478693 regwr=1 rd=x13 rd_data=0x80000134 memwr=0 mem_addr=0x80000134 mem_data=0x00000000 illegal=0 stall=0 redirect=0 fwdA=1 fwdB=0 class=ALUI
[745000][TB][INFO] SCB PASS #48
[755000][TB][INFO] SCB TRACE #49/490 : step=48 cycle=71 pc=0x800000a4 inst=0xfe842783 regwr=1 rd=x15 rd_data=0x00000000 memwr=0 mem_addr=0x8000ffe8 mem_data=0x80010000 illegal=0 stall=0 redirect=0 fwdA=0 fwdB=2 class=LOAD
[755000][TB][INFO] SCB PASS #49
[775000][TB][INFO] SCB TRACE #50/490 : step=49 cycle=73 pc=0x800000a8 inst=0x00279793 regwr=1 rd=x15 rd_data=0x00000000 memwr=0 mem_addr=0x00000000 mem_data=0x8000ffe0 illegal=0 stall=1 redirect=0 fwdA=0 fwdB=0 class=ALUI
[775000][TB][INFO] SCB PASS #50
[785000][TB][INFO] SCB TRACE #51/490 : step=50 cycle=74 pc=0x800000ac inst=0x00f687b3 regwr=1 rd=x15 rd_data=0x80000134 memwr=0 mem_addr=0x80000134 mem_data=0x00000000 illegal=0 stall=0 redirect=0 fwdA=0 fwdB=0 class=ALUR
[785000][TB][INFO] SCB PASS #51
[795000][TB][INFO] SCB TRACE #52/490 : step=51 cycle=75 pc=0x800000b0 inst=0x00e7a023 regwr=0 rd=x0 rd_data=0x80000134 memwr=1 mem_addr=0x80000134 mem_data=0x00000003 illegal=0 stall=0 redirect=0 fwdA=1 fwdB=0 class=STORE
[795000][TB][INFO] SCB PASS #52
[805000][TB][INFO] SCB TRACE #53/490 : step=52 cycle=76 pc=0x800000b4 inst=0xfe842783 regwr=1 rd=x15 rd_data=0x00000000 memwr=0 mem_addr=0x8000ffe8 mem_data=0x80010000 illegal=0 stall=0 redirect=0 fwdA=0 fwdB=0 class=LOAD
[805000][TB][INFO] SCB PASS #53
[825000][TB][INFO] SCB TRACE #54/490 : step=53 cycle=78 pc=0x800000b8 inst=0x00178793 regwr=1 rd=x15 rd_data=0x00000001 memwr=0 mem_addr=0x00000001 mem_data=0x8000000c illegal=0 stall=0 redirect=0 fwdA=0 fwdB=0 class=ALUI
[825000][TB][INFO] SCB PASS #54
[835000][TB][INFO] SCB TRACE #55/490 : step=54 cycle=79 pc=0x800000bc inst=0x80000737 regwr=1 rd=x14 rd_data=0x80000000 memwr=0 mem_addr=0x80000000 mem_data=0x00000000 illegal=0 stall=0 redirect=0 fwdA=1 fwdB=2 class=LUI
[835000][TB][INFO] SCB PASS #55
[845000][TB][INFO] SCB TRACE #56/490 : step=55 cycle=80 pc=0x800000c0 inst=0x13470713 regwr=1 rd=x14 rd_data=0x80000134 memwr=0 mem_addr=0x80000134 mem_data=0x00000000 illegal=0 stall=1 redirect=0 fwdA=0 fwdB=0 class=ALUI
[845000][TB][INFO] SCB PASS #56
[855000][TB][INFO] SCB TRACE #57/490 : step=56 cycle=81 pc=0x800000c4 inst=0x00279793 regwr=1 rd=x15 rd_data=0x00000004 memwr=0 mem_addr=0x00000004 mem_data=0x8000ffe0 illegal=0 stall=0 redirect=0 fwdA=0 fwdB=0 class=ALUI
[855000][TB][INFO] SCB PASS #57
[865000][TB][INFO] SCB TRACE #58/490 : step=57 cycle=82 pc=0x800000c8 inst=0x00f707b3 regwr=1 rd=x15 rd_data=0x80000138 memwr=0 mem_addr=0x80000138 mem_data=0x00000004 illegal=0 stall=0 redirect=0 fwdA=0 fwdB=1 class=ALUR
[865000][TB][INFO] SCB PASS #58
[875000][TB][INFO] SCB TRACE #59/490 : step=58 cycle=83 pc=0x800000cc inst=0xfe442703 regwr=1 rd=x14 rd_data=0x00000009 memwr=0 mem_addr=0x8000ffe4 mem_data=0x00000000 illegal=0 stall=1 redirect=0 fwdA=0 fwdB=0 class=LOAD
[875000][TB][INFO] SCB PASS #59
[895000][TB][INFO] SCB TRACE #60/490 : step=59 cycle=85 pc=0x800000d0 inst=0x00e7a023 regwr=0 rd=x0 rd_data=0x80000138 memwr=1 mem_addr=0x80000138 mem_data=0x00000009 illegal=0 stall=0 redirect=0 fwdA=1 fwdB=0 class=STORE
[895000][TB][INFO] SCB PASS #60
[905000][TB][INFO] SCB TRACE #61/490 : step=60 cycle=86 pc=0x800000d4 inst=0xfe842783 regwr=1 rd=x15 rd_data=0x00000000 memwr=0 mem_addr=0x8000ffe8 mem_data=0x80010000 illegal=0 stall=0 redirect=0 fwdA=0 fwdB=2 class=LOAD
[905000][TB][INFO] SCB PASS #61
[925000][TB][INFO] SCB TRACE #62/490 : step=61 cycle=88 pc=0x800000d8 inst=0x00178793 regwr=1 rd=x15 rd_data=0x00000001 memwr=0 mem_addr=0x00000001 mem_data=0x8000000c illegal=0 stall=1 redirect=0 fwdA=0 fwdB=0 class=ALUI
[925000][TB][INFO] SCB PASS #62
[935000][TB][INFO] SCB TRACE #63/490 : step=62 cycle=89 pc=0x800000dc inst=0xfef42423 regwr=0 rd=x8 rd_data=0x8000ffe8 memwr=1 mem_addr=0x8000ffe8 mem_data=0x00000001 illegal=0 stall=0 redirect=0 fwdA=0 fwdB=0 class=STORE
[935000][TB][INFO] SCB PASS #63
[945000][TB][INFO] SCB TRACE #64/490 : step=63 cycle=90 pc=0x800000e0 inst=0x00400713 regwr=1 rd=x14 rd_data=0x00000004 memwr=0 mem_addr=0x00000004 mem_data=0x00000000 illegal=0 stall=0 redirect=0 fwdA=0 fwdB=1 class=ALUI
[945000][TB][INFO] SCB PASS #64
[955000][TB][INFO] SCB TRACE #65/490 : step=64 cycle=91 pc=0x800000e4 inst=0xfec42783 regwr=1 rd=x15 rd_data=0x00000000 memwr=0 mem_addr=0x8000ffec mem_data=0x00000000 illegal=0 stall=1 redirect=0 fwdA=0 fwdB=0 class=LOAD
[955000][TB][INFO] SCB PASS #65
[975000][TB][INFO] SCB TRACE #66/490 : step=65 cycle=93 pc=0x800000e8 inst=0x40f707b3 regwr=1 rd=x15 rd_data=0x00000004 memwr=0 mem_addr=0x00000004 mem_data=0x00000000 illegal=0 stall=0 redirect=1 fwdA=1 fwdB=0 class=ALUR
[975000][TB][INFO] SCB PASS #66
[985000][TB][INFO] SCB TRACE #67/490 : step=66 cycle=94 pc=0x800000ec inst=0xfe842703 regwr=1 rd=x14 rd_data=0x00000001 memwr=0 mem_addr=0x8000ffe8 mem_data=0x80010000 illegal=0 stall=0 redirect=0 fwdA=0 fwdB=0 class=LOAD
[985000][TB][INFO] SCB PASS #67
[1005000][TB][INFO] SCB TRACE #68/490 : step=67 cycle=96 pc=0x800000f0 inst=0xf2f74ee3 regwr=0 rd=x29 rd_data=0x00000005 memwr=0 mem_addr=0x00000005 mem_data=0x00000004 illegal=0 stall=0 redirect=0 fwdA=0 fwdB=0 class=BRANCH
[1005000][TB][INFO] SCB PASS #68
[1035000][TB][INFO] SCB TRACE #69/490 : step=68 cycle=99 pc=0x8000002c inst=0x800007b7 regwr=1 rd=x15 rd_data=0x80000000 memwr=0 mem_addr=0x80000000 mem_data=0x00000000 illegal=0 stall=0 redirect=0 fwdA=0 fwdB=0 class=LUI
[1035000][TB][INFO] SCB PASS #69
[1045000][TB][INFO] SCB TRACE #70/490 : step=69 cycle=100 pc=0x80000030 inst=0x13478713 regwr=1 rd=x14 rd_data=0x80000134 memwr=0 mem_addr=0x80000134 mem_data=0x00000000 illegal=0 stall=0 redirect=0 fwdA=1 fwdB=0 class=ALUI
[1045000][TB][INFO] SCB PASS #70
[1055000][TB][INFO] SCB TRACE #71/490 : step=70 cycle=101 pc=0x80000034 inst=0xfe842783 regwr=1 rd=x15 rd_data=0x00000001 memwr=0 mem_addr=0x8000ffe8 mem_data=0x80010000 illegal=0 stall=0 redirect=0 fwdA=0 fwdB=2 class=LOAD
[1055000][TB][INFO] SCB PASS #71
[1075000][TB][INFO] SCB TRACE #72/490 : step=71 cycle=103 pc=0x80000038 inst=0x00279793 regwr=1 rd=x15 rd_data=0x00000004 memwr=0 mem_addr=0x00000004 mem_data=0x8000ffe0 illegal=0 stall=1 redirect=0 fwdA=0 fwdB=0 class=ALUI
[1075000][TB][INFO] SCB PASS #72
[1085000][TB][INFO] SCB TRACE #73/490 : step=72 cycle=104 pc=0x8000003c inst=0x00f707b3 regwr=1 rd=x15 rd_data=0x80000138 memwr=0 mem_addr=0x80000138 mem_data=0x00000004 illegal=0 stall=0 redirect=0 fwdA=0 fwdB=0 class=ALUR
[1085000][TB][INFO] SCB PASS #73
[1095000][TB][INFO] SCB TRACE #74/490 : step=73 cycle=105 pc=0x80000040 inst=0x0007a703 regwr=1 rd=x14 rd_data=0x00000009 memwr=0 mem_addr=0x80000138 mem_data=0x00000000 illegal=0 stall=0 redirect=0 fwdA=1 fwdB=0 class=LOAD
[1095000][TB][INFO] SCB PASS #74
[1105000][TB][INFO] SCB TRACE #75/490 : step=74 cycle=106 pc=0x80000044 inst=0xfe842783 regwr=1 rd=x15 rd_data=0x00000001 memwr=0 mem_addr=0x8000ffe8 mem_data=0x80010000 illegal=0 stall=0 redirect=0 fwdA=0 fwdB=0 class=LOAD
[1105000][TB][INFO] SCB PASS #75
[1125000][TB][INFO] SCB TRACE #76/490 : step=75 cycle=108 pc=0x80000048 inst=0x00178793 regwr=1 rd=x15 rd_data=0x00000002 memwr=0 mem_addr=0x00000002 mem_data=0x8000000c illegal=0 stall=0 redirect=0 fwdA=0 fwdB=0 class=ALUI
[1125000][TB][INFO] SCB PASS #76
[1135000][TB][INFO] SCB TRACE #77/490 : step=76 cycle=109 pc=0x8000004c inst=0x800006b7 regwr=1 rd=x13 rd_data=0x80000000 memwr=0 mem_addr=0x80000000 mem_data=0x00000000 illegal=0 stall=0 redirect=0 fwdA=1 fwdB=2 class=LUI
[1135000][TB][INFO] SCB PASS #77
[1145000][TB][INFO] SCB TRACE #78/490 : step=77 cycle=110 pc=0x80000050 inst=0x13468693 regwr=1 rd=x13 rd_data=0x80000134 memwr=0 mem_addr=0x80000134 mem_data=0x00000000 illegal=0 stall=1 redirect=0 fwdA=2 fwdB=0 class=ALUI
[1145000][TB][INFO] SCB PASS #78
[1155000][TB][INFO] SCB TRACE #79/490 : step=78 cycle=111 pc=0x80000054 inst=0x00279793 regwr=1 rd=x15 rd_data=0x00000008 memwr=0 mem_addr=0x00000008 mem_data=0x8000ffe0 illegal=0 stall=0 redirect=0 fwdA=0 fwdB=0 class=ALUI
[1155000][TB][INFO] SCB PASS #79
[1165000][TB][INFO] SCB TRACE #80/490 : step=79 cycle=112 pc=0x80000058 inst=0x00f687b3 regwr=1 rd=x15 rd_data=0x8000013c memwr=0 mem_addr=0x8000013c mem_data=0x00000008 illegal=0 stall=0 redirect=0 fwdA=1 fwdB=0 class=ALUR
[1165000][TB][INFO] SCB PASS #80
[1175000][TB][INFO] SCB TRACE #81/490 : step=80 cycle=113 pc=0x8000005c inst=0x0007a783 regwr=1 rd=x15 rd_data=0x00000007 memwr=0 mem_addr=0x8000013c mem_data=0x00000000 illegal=0 stall=0 redirect=0 fwdA=0 fwdB=0 class=LOAD
[1175000][TB][INFO] SCB PASS #81
[1195000][TB][INFO] SCB TRACE #82/490 : step=81 cycle=115 pc=0x80000060 inst=0x06e7da63 regwr=0 rd=x20 rd_data=0x00000010 memwr=0 mem_addr=0x00000010 mem_data=0x00000009 illegal=0 stall=1 redirect=0 fwdA=0 fwdB=0 class=BRANCH
[1195000][TB][INFO] SCB PASS #82
[1205000][TB][INFO] SCB TRACE #83/490 : step=82 cycle=116 pc=0x80000064 inst=0x800007b7 regwr=1 rd=x15 rd_data=0x80000000 memwr=0 mem_addr=0x80000000 mem_data=0x00000000 illegal=0 stall=0 redirect=0 fwdA=0 fwdB=0 class=LUI
[1205000][TB][INFO] SCB PASS #83
[1215000][TB][INFO] SCB TRACE #84/490 : step=83 cycle=117 pc=0x80000068 inst=0x13478713 regwr=1 rd=x14 rd_data=0x80000134 memwr=0 mem_addr=0x80000134 mem_data=0x00000000 illegal=0 stall=0 redirect=0 fwdA=1 fwdB=0 class=ALUI
[1215000][TB][INFO] SCB PASS #84
[1225000][TB][INFO] SCB TRACE #85/490 : step=84 cycle=118 pc=0x8000006c inst=0xfe842783 regwr=1 rd=x15 rd_data=0x00000001 memwr=0 mem_addr=0x8000ffe8 mem_data=0x80010000 illegal=0 stall=0 redirect=0 fwdA=0 fwdB=2 class=LOAD
[1225000][TB][INFO] SCB PASS #85
[1245000][TB][INFO] SCB TRACE #86/490 : step=85 cycle=120 pc=0x80000070 inst=0x00279793 regwr=1 rd=x15 rd_data=0x00000004 memwr=0 mem_addr=0x00000004 mem_data=0x8000ffe0 illegal=0 stall=0 redirect=0 fwdA=0 fwdB=0 class=ALUI
[1245000][TB][INFO] SCB PASS #86
