SystemVerilogProject/evidence/logs/async_fifo_src_vivado.log
#-----------------------------------------------------------
# Vivado v2020.2 (64-bit)
# SW Build 3064766 on Wed Nov 18 09:12:45 MST 2020
# IP Build 3064653 on Wed Nov 18 14:17:31 MST 2020
# Start of session at: Sat Mar 21 02:23:47 2026
# Process ID: 18896
# Current directory: D:/02_learning_lab/fpga/portfoloio_uvm1
# Command line: vivado.exe -mode batch -source D:\02_learning_lab\fpga\portfoloio_uvm1\FPGA_Auto_Project\templates\contexts\simulation\adapters\tcl\sim_run_vivado_nogui.tcl -log D:\02_learning_lab\fpga\portfoloio_uvm1\FPGA_Auto_Project\Project\veri1\log\portfolio\async_fifo_src_vivado.log -journal D:\02_learning_lab\fpga\portfoloio_uvm1\FPGA_Auto_Project\Project\veri1\log\portfolio\async_fifo_src_vivado.jou -notrace -tclargs D:\02_learning_lab\fpga\portfoloio_uvm1\FPGA_Auto_Project\Project\veri1 tb_async_fifo D:\Xilinx\Vivado\2024.1 D:\02_learning_lab\fpga\portfoloio_uvm1\FPGA_Auto_Project\Project\Veri1\output\manifest\manifest_src_files.lst D:\02_learning_lab\fpga\portfoloio_uvm1\FPGA_Auto_Project\Project\Veri1\output\manifest\manifest_tb_files.lst D:\02_learning_lab\fpga\portfoloio_uvm1\FPGA_Auto_Project\Project\Veri1\output\manifest\manifest_inc_dirs.lst D:\02_learning_lab\fpga\portfoloio_uvm1\FPGA_Auto_Project\Project\veri1\tb\async_fifo\tb_async_fifo.sv -testplusarg TESTNAME all
# Log file: D:/02_learning_lab/fpga/portfoloio_uvm1/FPGA_Auto_Project/Project/veri1/log/portfolio/async_fifo_src_vivado.log
# Journal file: D:\02_learning_lab\fpga\portfoloio_uvm1\FPGA_Auto_Project\Project\veri1\log\portfolio\async_fifo_src_vivado.jou
#-----------------------------------------------------------
source {D:\02_learning_lab\fpga\portfoloio_uvm1\FPGA_Auto_Project\templates\contexts\simulation\adapters\tcl\sim_run_vivado_nogui.tcl} -notrace
[INFO] Loading build config: D:/02_learning_lab/fpga/portfoloio_uvm1/FPGA_Auto_Project/templates/contexts/vivado/domain/project_build_config.tcl
[INFO] Applying TB scope filter by selected file folder: D:/02_learning_lab/fpga/portfoloio_uvm1/FPGA_Auto_Project/Project/Veri1/tb/async_fifo
[INFO] Creating Vivado project: sim_nogui_tb_async_fifo
[INFO] Project directory: D:/Xilinx/Vivado/2024.1/project/sim_nogui_tb_async_fifo
create_project: Time (s): cpu = 00:00:02 ; elapsed = 00:00:06 . Memory (MB): peak = 1106.406 ; gain = 0.000
[INFO] Adding source files: 12
[INFO] Adding testbench files: 3
[INFO] Setting include dirs: 1
[INFO] Setting simulation top: tb_async_fifo
[INFO] Setting xsim.more_options: -testplusarg TESTNAME=all
[INFO] Initial launch runtime set to 0ns (auto replay mode)
[INFO] Launching simulation in batch mode...
Command: launch_simulation 
INFO: [Vivado 12-5682] Launching behavioral simulation in 'D:/Xilinx/Vivado/2024.1/project/sim_nogui_tb_async_fifo/sim_nogui_tb_async_fifo.sim/sim_1/behav/xsim'
INFO: [SIM-utils-51] Simulation object is 'sim_1'
INFO: [SIM-utils-54] Inspecting design source files for 'tb_async_fifo' in fileset 'sim_1'...
INFO: [USF-XSim-97] Finding global include files...
INFO: [USF-XSim-98] Fetching design files from 'sim_1'...
INFO: [USF-XSim-2] XSim::Compile design
INFO: [USF-XSim-61] Executing 'COMPILE and ANALYZE' step in 'D:/Xilinx/Vivado/2024.1/project/sim_nogui_tb_async_fifo/sim_nogui_tb_async_fifo.sim/sim_1/behav/xsim'
"xvlog --incr --relax -L uvm -prj tb_async_fifo_vlog.prj"
INFO: [VRFC 10-2263] Analyzing SystemVerilog file "D:/02_learning_lab/fpga/portfoloio_uvm1/FPGA_Auto_Project/Project/Veri1/src/async_fifo.sv" into library xil_defaultlib
INFO: [VRFC 10-311] analyzing module async_fifo
INFO: [VRFC 10-2263] Analyzing SystemVerilog file "D:/02_learning_lab/fpga/portfoloio_uvm1/FPGA_Auto_Project/Project/Veri1/tb/async_fifo/async_fifo_if.sv" into library xil_defaultlib
INFO: [VRFC 10-2263] Analyzing SystemVerilog file "D:/02_learning_lab/fpga/portfoloio_uvm1/FPGA_Auto_Project/Project/Veri1/tb/async_fifo/async_fifo_tb_pkg.sv" into library xil_defaultlib
INFO: [VRFC 10-2263] Analyzing SystemVerilog file "D:/02_learning_lab/fpga/portfoloio_uvm1/FPGA_Auto_Project/Project/Veri1/tb/async_fifo/tb_async_fifo.sv" into library xil_defaultlib
INFO: [VRFC 10-311] analyzing module tb_async_fifo
INFO: [VRFC 10-2263] Analyzing Verilog file "D:/Xilinx/Vivado/2024.1/project/sim_nogui_tb_async_fifo/sim_nogui_tb_async_fifo.sim/sim_1/behav/xsim/glbl.v" into library xil_defaultlib
INFO: [VRFC 10-311] analyzing module glbl
INFO: [USF-XSim-69] 'compile' step finished in '2' seconds
INFO: [USF-XSim-3] XSim::Elaborate design
INFO: [USF-XSim-61] Executing 'ELABORATE' step in 'D:/Xilinx/Vivado/2024.1/project/sim_nogui_tb_async_fifo/sim_nogui_tb_async_fifo.sim/sim_1/behav/xsim'
"xelab -wto 5cb7bc625c4c44c99427915610dfb6a9 --incr --debug typical --relax --mt 2 -L xil_defaultlib -L uvm -L unisims_ver -L unimacro_ver -L secureip --snapshot tb_async_fifo_behav xil_defaultlib.tb_async_fifo xil_defaultlib.glbl -log elaborate.log"
Vivado Simulator 2020.2
Copyright 1986-1999, 2001-2020 Xilinx, Inc. All Rights Reserved.
Running: C:/Xilinx/Vivado/2020.2/bin/unwrapped/win64.o/xelab.exe -wto 5cb7bc625c4c44c99427915610dfb6a9 --incr --debug typical --relax --mt 2 -L xil_defaultlib -L uvm -L unisims_ver -L unimacro_ver -L secureip --snapshot tb_async_fifo_behav xil_defaultlib.tb_async_fifo xil_defaultlib.glbl -log elaborate.log 
Using 2 slave threads.
Starting static elaboration
Pass Through NonSizing Optimizer
Completed static elaboration
Starting simulation data flow analysis
Completed simulation data flow analysis
Time Resolution for simulation is 1ps
Compiling package xil_defaultlib.async_fifo_tb_pkg
Compiling package std.std
Compiling module xil_defaultlib.wr_drv_cb
Compiling module xil_defaultlib.wr_pre_cb
Compiling module xil_defaultlib.wr_mon_cb
Compiling module xil_defaultlib.rd_drv_cb
Compiling module xil_defaultlib.rd_pre_cb
Compiling module xil_defaultlib.rd_mon_cb
Compiling module xil_defaultlib.async_fifo_if
Compiling module xil_defaultlib.async_fifo_default
Compiling module xil_defaultlib.tb_async_fifo
Compiling module xil_defaultlib.glbl
Built simulation snapshot tb_async_fifo_behav

****** Webtalk v2020.2 (64-bit)
  **** SW Build 3064766 on Wed Nov 18 09:12:45 MST 2020
  **** IP Build 3064653 on Wed Nov 18 14:17:31 MST 2020
    ** Copyright 1986-2020 Xilinx, Inc. All Rights Reserved.

source D:/Xilinx/Vivado/2024.1/project/sim_nogui_tb_async_fifo/sim_nogui_tb_async_fifo.sim/sim_1/behav/xsim/xsim.dir/tb_async_fifo_behav/webtalk/xsim_webtalk.tcl -notrace
INFO: [Common 17-206] Exiting Webtalk at Sat Mar 21 02:24:12 2026...
run_program: Time (s): cpu = 00:00:00 ; elapsed = 00:00:07 . Memory (MB): peak = 1106.406 ; gain = 0.000
INFO: [USF-XSim-69] 'elaborate' step finished in '8' seconds
INFO: [USF-XSim-4] XSim::Simulate design
INFO: [USF-XSim-61] Executing 'SIMULATE' step in 'D:/Xilinx/Vivado/2024.1/project/sim_nogui_tb_async_fifo/sim_nogui_tb_async_fifo.sim/sim_1/behav/xsim'
INFO: [USF-XSim-98] *** Running xsim
   with args "tb_async_fifo_behav -key {Behavioral:sim_1:Functional:tb_async_fifo} -tclbatch {tb_async_fifo.tcl} -log {simulate.log} -testplusarg TESTNAME=all"
INFO: [USF-XSim-8] Loading simulator feature
Vivado Simulator 2020.2
Time resolution is 1 ps
source tb_async_fifo.tcl
WARNING: Simulation object /tb_async_fifo/env was not traceable in the design for the following reason:
Vivado Simulator does not support tracing of System Verilog Dynamic Type object.
[TB] Starting async_fifo verification (UVM-inspired custom environment)
INFO: [USF-XSim-96] XSim completed. Design snapshot 'tb_async_fifo_behav' loaded.
INFO: [USF-XSim-97] XSim simulation ran for 0ns
launch_simulation: Time (s): cpu = 00:00:00 ; elapsed = 00:00:12 . Memory (MB): peak = 1106.406 ; gain = 0.000
[INFO] Auto replay: restart + run all
INFO: [Simtcl 6-17] Simulation restarted
[TB] Starting async_fifo verification (UVM-inspired custom environment)
[DRV] reset released
[GEN][PHASE] iter=0 scenario=fill_burst
[MON-RD] t=70000 scenario=unclassified rd_en=0 rdata=0 full=0 empty=1
[MON-WR] t=72000 scenario=fill_burst wr_en=1 wdata=3c full=0 empty=1
[SCB-WR] PASS t=72000 scenario=fill_burst push=3c depth=1
[MON-WR] t=80000 scenario=fill_burst wr_en=0 wdata=3c full=0 empty=1
[DRV] scenario=fill_burst wr_en=1 rd_en=1 wdata=3c @84000
[MON-RD] t=84000 scenario=fill_burst rd_en=1 rdata=0 full=0 empty=1
[SCB-RD] BLOCK t=84000 scenario=fill_burst empty_pre=1 depth=1
[MON-WR] t=88000 scenario=fill_burst wr_en=0 wdata=3c full=0 empty=1
[MON-WR] t=96000 scenario=fill_burst wr_en=1 wdata=5e full=0 empty=1
[SCB-WR] PASS t=96000 scenario=fill_burst push=5e depth=2
[MON-RD] t=98000 scenario=fill_burst rd_en=0 rdata=0 full=0 empty=1
[MON-WR] t=104000 scenario=fill_burst wr_en=0 wdata=5e full=0 empty=1
[DRV] scenario=fill_burst wr_en=1 rd_en=0 wdata=5e @112000
[MON-RD] t=112000 scenario=fill_burst rd_en=0 rdata=0 full=0 empty=0
[MON-WR] t=112000 scenario=fill_burst wr_en=0 wdata=5e full=0 empty=0
[MON-WR] t=120000 scenario=fill_burst wr_en=0 wdata=5e full=0 empty=0
[MON-RD] t=126000 scenario=fill_burst rd_en=0 rdata=0 full=0 empty=0
[MON-WR] t=128000 scenario=fill_burst wr_en=1 wdata=24 full=0 empty=0
[SCB-WR] PASS t=128000 scenario=fill_burst push=24 depth=3
[MON-WR] t=136000 scenario=fill_burst wr_en=0 wdata=24 full=0 empty=0
[DRV] scenario=fill_burst wr_en=1 rd_en=0 wdata=24 @140000
[MON-RD] t=140000 scenario=fill_burst rd_en=0 rdata=0 full=0 empty=0
[MON-WR] t=144000 scenario=fill_burst wr_en=0 wdata=24 full=0 empty=0
[MON-WR] t=152000 scenario=fill_burst wr_en=1 wdata=a5 full=0 empty=0
[SCB-WR] PASS t=152000 scenario=fill_burst push=a5 depth=4
[MON-RD] t=154000 scenario=fill_burst rd_en=0 rdata=0 full=0 empty=0
[MON-WR] t=160000 scenario=fill_burst wr_en=0 wdata=a5 full=0 empty=0
[DRV] scenario=fill_burst wr_en=1 rd_en=0 wdata=a5 @168000
[MON-RD] t=168000 scenario=fill_burst rd_en=0 rdata=0 full=0 empty=0
[MON-WR] t=168000 scenario=fill_burst wr_en=0 wdata=a5 full=0 empty=0
[MON-WR] t=176000 scenario=fill_burst wr_en=0 wdata=a5 full=0 empty=0
[MON-RD] t=182000 scenario=fill_burst rd_en=0 rdata=0 full=0 empty=0
[MON-WR] t=184000 scenario=fill_burst wr_en=1 wdata=0 full=0 empty=0
[SCB-WR] PASS t=184000 scenario=fill_burst push=0 depth=5
[MON-WR] t=192000 scenario=fill_burst wr_en=0 wdata=0 full=0 empty=0
[DRV] scenario=fill_burst wr_en=1 rd_en=0 wdata=0 @196000
[MON-RD] t=196000 scenario=fill_burst rd_en=0 rdata=0 full=0 empty=0
[MON-WR] t=200000 scenario=fill_burst wr_en=0 wdata=0 full=0 empty=0
[MON-WR] t=208000 scenario=fill_burst wr_en=1 wdata=76 full=0 empty=0
[SCB-WR] PASS t=208000 scenario=fill_burst push=76 depth=6
[MON-RD] t=210000 scenario=fill_burst rd_en=0 rdata=0 full=0 empty=0
[MON-WR] t=216000 scenario=fill_burst wr_en=0 wdata=76 full=0 empty=0
[DRV] scenario=fill_burst wr_en=1 rd_en=0 wdata=76 @224000
[MON-RD] t=224000 scenario=fill_burst rd_en=0 rdata=0 full=0 empty=0
[MON-WR] t=224000 scenario=fill_burst wr_en=0 wdata=76 full=0 empty=0
[MON-WR] t=232000 scenario=fill_burst wr_en=0 wdata=76 full=0 empty=0
[MON-RD] t=238000 scenario=fill_burst rd_en=0 rdata=0 full=0 empty=0
[MON-WR] t=240000 scenario=fill_burst wr_en=1 wdata=8a full=0 empty=0
[SCB-WR] PASS t=240000 scenario=fill_burst push=8a depth=7
[MON-WR] t=248000 scenario=fill_burst wr_en=0 wdata=8a full=0 empty=0
[DRV] scenario=fill_burst wr_en=1 rd_en=0 wdata=8a @252000
[MON-RD] t=252000 scenario=fill_burst rd_en=0 rdata=0 full=0 empty=0
[MON-WR] t=256000 scenario=fill_burst wr_en=0 wdata=8a full=0 empty=0
[MON-WR] t=264000 scenario=fill_burst wr_en=1 wdata=61 full=0 empty=0
[SCB-WR] PASS t=264000 scenario=fill_burst push=61 depth=8
[MON-RD] t=266000 scenario=fill_burst rd_en=0 rdata=0 full=0 empty=0
[MON-WR] t=272000 scenario=fill_burst wr_en=0 wdata=61 full=0 empty=0
[DRV] scenario=fill_burst wr_en=1 rd_en=0 wdata=61 @280000
[MON-RD] t=280000 scenario=fill_burst rd_en=0 rdata=0 full=0 empty=0
[MON-WR] t=280000 scenario=fill_burst wr_en=0 wdata=61 full=0 empty=0
[MON-WR] t=288000 scenario=fill_burst wr_en=0 wdata=61 full=0 empty=0
[MON-RD] t=294000 scenario=fill_burst rd_en=0 rdata=0 full=0 empty=0
[MON-WR] t=296000 scenario=fill_burst wr_en=1 wdata=b4 full=0 empty=0
[SCB-WR] PASS t=296000 scenario=fill_burst push=b4 depth=9
[MON-WR] t=304000 scenario=fill_burst wr_en=0 wdata=b4 full=0 empty=0
[DRV] scenario=fill_burst wr_en=1 rd_en=0 wdata=b4 @308000
[MON-RD] t=308000 scenario=fill_burst rd_en=0 rdata=0 full=0 empty=0
[MON-WR] t=312000 scenario=fill_burst wr_en=0 wdata=b4 full=0 empty=0
[MON-WR] t=320000 scenario=fill_burst wr_en=1 wdata=b0 full=0 empty=0
[SCB-WR] PASS t=320000 scenario=fill_burst push=b0 depth=10
[MON-RD] t=322000 scenario=fill_burst rd_en=0 rdata=0 full=0 empty=0
[MON-WR] t=328000 scenario=fill_burst wr_en=0 wdata=b0 full=0 empty=0
[DRV] scenario=fill_burst wr_en=1 rd_en=0 wdata=b0 @336000
[MON-RD] t=336000 scenario=fill_burst rd_en=0 rdata=0 full=0 empty=0
[MON-WR] t=336000 scenario=fill_burst wr_en=0 wdata=b0 full=0 empty=0
[MON-WR] t=344000 scenario=fill_burst wr_en=0 wdata=b0 full=0 empty=0
[MON-RD] t=350000 scenario=fill_burst rd_en=0 rdata=0 full=0 empty=0
[MON-WR] t=352000 scenario=fill_burst wr_en=1 wdata=41 full=0 empty=0
[SCB-WR] PASS t=352000 scenario=fill_burst push=41 depth=11
[MON-WR] t=360000 scenario=fill_burst wr_en=0 wdata=41 full=0 empty=0
[DRV] scenario=fill_burst wr_en=1 rd_en=0 wdata=41 @364000
[MON-RD] t=364000 scenario=fill_burst rd_en=0 rdata=0 full=0 empty=0
[MON-WR] t=368000 scenario=fill_burst wr_en=0 wdata=41 full=0 empty=0
[MON-WR] t=376000 scenario=fill_burst wr_en=1 wdata=fc full=0 empty=0
[SCB-WR] PASS t=376000 scenario=fill_burst push=fc depth=12
[MON-RD] t=378000 scenario=fill_burst rd_en=0 rdata=0 full=0 empty=0
[MON-WR] t=384000 scenario=fill_burst wr_en=0 wdata=fc full=0 empty=0
[DRV] scenario=fill_burst wr_en=1 rd_en=1 wdata=fc @392000
[MON-RD] t=392000 scenario=fill_burst rd_en=1 rdata=3c full=0 empty=0
[MON-WR] t=392000 scenario=fill_burst wr_en=0 wdata=fc full=0 empty=0
[SCB-RD] PASS t=392000 scenario=fill_burst exp=3c got=3c depth_after=11
[MON-WR] t=400000 scenario=fill_burst wr_en=0 wdata=fc full=0 empty=0
[MON-RD] t=406000 scenario=fill_burst rd_en=0 rdata=3c full=0 empty=0
[MON-WR] t=408000 scenario=fill_burst wr_en=1 wdata=6f full=0 empty=0
[SCB-WR] PASS t=408000 scenario=fill_burst push=6f depth=12
[MON-WR] t=416000 scenario=fill_burst wr_en=0 wdata=6f full=0 empty=0
[DRV] scenario=fill_burst wr_en=1 rd_en=0 wdata=6f @420000
[MON-RD] t=420000 scenario=fill_burst rd_en=0 rdata=3c full=0 empty=0
[MON-WR] t=424000 scenario=fill_burst wr_en=0 wdata=6f full=0 empty=0
[MON-WR] t=432000 scenario=fill_burst wr_en=1 wdata=14 full=0 empty=0
[SCB-WR] PASS t=432000 scenario=fill_burst push=14 depth=13
[MON-RD] t=434000 scenario=fill_burst rd_en=0 rdata=3c full=0 empty=0
[MON-WR] t=440000 scenario=fill_burst wr_en=0 wdata=14 full=0 empty=0
[DRV] scenario=fill_burst wr_en=1 rd_en=0 wdata=14 @448000
[MON-RD] t=448000 scenario=fill_burst rd_en=0 rdata=3c full=0 empty=0
[MON-WR] t=448000 scenario=fill_burst wr_en=0 wdata=14 full=0 empty=0
[MON-WR] t=456000 scenario=fill_burst wr_en=0 wdata=14 full=0 empty=0
[MON-RD] t=462000 scenario=fill_burst rd_en=0 rdata=3c full=0 empty=0
[MON-WR] t=464000 scenario=fill_burst wr_en=1 wdata=25 full=0 empty=0
[SCB-WR] PASS t=464000 scenario=fill_burst push=25 depth=14
[MON-WR] t=472000 scenario=fill_burst wr_en=0 wdata=25 full=0 empty=0
[DRV] scenario=fill_burst wr_en=1 rd_en=0 wdata=25 @476000
[MON-RD] t=476000 scenario=fill_burst rd_en=0 rdata=3c full=0 empty=0
[MON-WR] t=480000 scenario=fill_burst wr_en=0 wdata=25 full=0 empty=0
[MON-WR] t=488000 scenario=fill_burst wr_en=1 wdata=9 full=0 empty=0
[SCB-WR] PASS t=488000 scenario=fill_burst push=9 depth=15
[MON-RD] t=490000 scenario=fill_burst rd_en=0 rdata=3c full=0 empty=0
[MON-WR] t=496000 scenario=fill_burst wr_en=0 wdata=9 full=0 empty=0
[DRV] scenario=fill_burst wr_en=1 rd_en=0 wdata=9 @504000
[MON-RD] t=504000 scenario=fill_burst rd_en=0 rdata=3c full=0 empty=0
[MON-WR] t=504000 scenario=fill_burst wr_en=0 wdata=9 full=0 empty=0
[MON-WR] t=512000 scenario=fill_burst wr_en=0 wdata=9 full=0 empty=0
[MON-RD] t=518000 scenario=fill_burst rd_en=0 rdata=3c full=1 empty=0
[MON-WR] t=520000 scenario=fill_burst wr_en=1 wdata=5d full=1 empty=0
[SCB-WR] PASS t=520000 scenario=fill_burst push=5d depth=16
[MON-WR] t=528000 scenario=fill_burst wr_en=0 wdata=5d full=1 empty=0
[DRV] scenario=fill_burst wr_en=1 rd_en=0 wdata=5d @532000
[MON-RD] t=532000 scenario=fill_burst rd_en=0 rdata=3c full=1 empty=0
[MON-WR] t=536000 scenario=fill_burst wr_en=0 wdata=5d full=1 empty=0
[MON-WR] t=544000 scenario=fill_burst wr_en=1 wdata=9b full=1 empty=0
[SCB-WR] BLOCK t=544000 scenario=fill_burst full_pre=1 depth=16
[MON-RD] t=546000 scenario=fill_burst rd_en=0 rdata=3c full=1 empty=0
[MON-WR] t=552000 scenario=fill_burst wr_en=0 wdata=9b full=1 empty=0
[DRV] scenario=fill_burst wr_en=1 rd_en=1 wdata=9b @560000
[MON-RD] t=560000 scenario=fill_burst rd_en=1 rdata=5e full=1 empty=0
[MON-WR] t=560000 scenario=fill_burst wr_en=0 wdata=9b full=1 empty=0
[SCB-RD] PASS t=560000 scenario=fill_burst exp=5e got=5e depth_after=15
[MON-WR] t=568000 scenario=fill_burst wr_en=0 wdata=9b full=1 empty=0
[MON-RD] t=574000 scenario=fill_burst rd_en=0 rdata=5e full=0 empty=0
[MON-WR] t=576000 scenario=fill_burst wr_en=1 wdata=cd full=0 empty=0
[SCB-WR] BLOCK t=576000 scenario=fill_burst full_pre=1 depth=15
[MON-WR] t=584000 scenario=fill_burst wr_en=0 wdata=cd full=0 empty=0
[DRV] scenario=fill_burst wr_en=1 rd_en=0 wdata=cd @588000
[MON-RD] t=588000 scenario=fill_burst rd_en=0 rdata=5e full=0 empty=0
[MON-WR] t=592000 scenario=fill_burst wr_en=0 wdata=cd full=0 empty=0
[MON-WR] t=600000 scenario=fill_burst wr_en=1 wdata=9a full=1 empty=0
[SCB-WR] PASS t=600000 scenario=fill_burst push=9a depth=16
[MON-RD] t=602000 scenario=fill_burst rd_en=0 rdata=5e full=1 empty=0
[MON-WR] t=608000 scenario=fill_burst wr_en=0 wdata=9a full=1 empty=0
[DRV] scenario=fill_burst wr_en=1 rd_en=0 wdata=9a @616000
[MON-RD] t=616000 scenario=fill_burst rd_en=0 rdata=5e full=1 empty=0
[MON-WR] t=616000 scenario=fill_burst wr_en=0 wdata=9a full=1 empty=0
[MON-WR] t=624000 scenario=fill_burst wr_en=0 wdata=9a full=1 empty=0
[MON-RD] t=630000 scenario=fill_burst rd_en=0 rdata=5e full=1 empty=0
[MON-WR] t=632000 scenario=fill_burst wr_en=1 wdata=23 full=1 empty=0
[SCB-WR] BLOCK t=632000 scenario=fill_burst full_pre=1 depth=16
[MON-WR] t=640000 scenario=fill_burst wr_en=0 wdata=23 full=1 empty=0
[DRV] scenario=fill_burst wr_en=1 rd_en=0 wdata=23 @644000
[MON-RD] t=644000 scenario=fill_burst rd_en=0 rdata=5e full=1 empty=0
[MON-WR] t=648000 scenario=fill_burst wr_en=0 wdata=23 full=1 empty=0
[MON-WR] t=656000 scenario=fill_burst wr_en=1 wdata=a1 full=1 empty=0
[SCB-WR] BLOCK t=656000 scenario=fill_burst full_pre=1 depth=16
[MON-RD] t=658000 scenario=fill_burst rd_en=0 rdata=5e full=1 empty=0
[MON-WR] t=664000 scenario=fill_burst wr_en=0 wdata=a1 full=1 empty=0
[DRV] scenario=fill_burst wr_en=1 rd_en=0 wdata=a1 @672000
[MON-RD] t=672000 scenario=fill_burst rd_en=0 rdata=5e full=1 empty=0
[MON-WR] t=672000 scenario=fill_burst wr_en=0 wdata=a1 full=1 empty=0
[MON-WR] t=680000 scenario=fill_burst wr_en=0 wdata=a1 full=1 empty=0
[MON-RD] t=686000 scenario=fill_burst rd_en=0 rdata=5e full=1 empty=0
[MON-WR] t=688000 scenario=fill_burst wr_en=1 wdata=4c full=1 empty=0
[SCB-WR] BLOCK t=688000 scenario=fill_burst full_pre=1 depth=16
[MON-WR] t=696000 scenario=fill_burst wr_en=0 wdata=4c full=1 empty=0
[DRV] scenario=fill_burst wr_en=1 rd_en=1 wdata=4c @700000
[MON-RD] t=700000 scenario=fill_burst rd_en=1 rdata=24 full=1 empty=0
[SCB-RD] PASS t=700000 scenario=fill_burst exp=24 got=24 depth_after=15
[MON-WR] t=704000 scenario=fill_burst wr_en=0 wdata=4c full=1 empty=0
[MON-WR] t=712000 scenario=fill_burst wr_en=1 wdata=e1 full=1 empty=0
[SCB-WR] BLOCK t=712000 scenario=fill_burst full_pre=1 depth=15
[MON-RD] t=714000 scenario=fill_burst rd_en=0 rdata=24 full=1 empty=0
[MON-WR] t=720000 scenario=fill_burst wr_en=0 wdata=e1 full=0 empty=0
[DRV] scenario=fill_burst wr_en=1 rd_en=0 wdata=e1 @728000
[MON-RD] t=728000 scenario=fill_burst rd_en=0 rdata=24 full=0 empty=0
[MON-WR] t=728000 scenario=fill_burst wr_en=0 wdata=e1 full=0 empty=0
[MON-WR] t=736000 scenario=fill_burst wr_en=0 wdata=e1 full=0 empty=0
[MON-RD] t=742000 scenario=fill_burst rd_en=0 rdata=24 full=1 empty=0
[MON-WR] t=744000 scenario=fill_burst wr_en=1 wdata=54 full=1 empty=0
[SCB-WR] PASS t=744000 scenario=fill_burst push=54 depth=16
[MON-WR] t=752000 scenario=fill_burst wr_en=0 wdata=54 full=1 empty=0
[DRV] scenario=fill_burst wr_en=1 rd_en=0 wdata=54 @756000
[MON-RD] t=756000 scenario=fill_burst rd_en=0 rdata=24 full=1 empty=0
[MON-WR] t=760000 scenario=fill_burst wr_en=0 wdata=54 full=1 empty=0
[MON-WR] t=768000 scenario=fill_burst wr_en=1 wdata=24 full=1 empty=0
[SCB-WR] BLOCK t=768000 scenario=fill_burst full_pre=1 depth=16
[MON-RD] t=770000 scenario=fill_burst rd_en=0 rdata=24 full=1 empty=0
[MON-WR] t=776000 scenario=fill_burst wr_en=0 wdata=24 full=1 empty=0
[DRV] scenario=fill_burst wr_en=1 rd_en=1 wdata=24 @784000
[MON-RD] t=784000 scenario=fill_burst rd_en=1 rdata=a5 full=1 empty=0
[MON-WR] t=784000 scenario=fill_burst wr_en=0 wdata=24 full=1 empty=0
[SCB-RD] PASS t=784000 scenario=fill_burst exp=a5 got=a5 depth_after=15
[MON-WR] t=792000 scenario=fill_burst wr_en=0 wdata=24 full=1 empty=0
[MON-RD] t=798000 scenario=fill_burst rd_en=0 rdata=a5 full=0 empty=0
[MON-WR] t=800000 scenario=fill_burst wr_en=1 wdata=f7 full=0 empty=0
[SCB-WR] BLOCK t=800000 scenario=fill_burst full_pre=1 depth=15
[MON-WR] t=808000 scenario=fill_burst wr_en=0 wdata=f7 full=0 empty=0
[DRV] scenario=fill_burst wr_en=1 rd_en=0 wdata=f7 @812000
[MON-RD] t=812000 scenario=fill_burst rd_en=0 rdata=a5 full=0 empty=0
[MON-WR] t=816000 scenario=fill_burst wr_en=0 wdata=f7 full=0 empty=0
[MON-WR] t=824000 scenario=fill_burst wr_en=1 wdata=fd full=1 empty=0
[SCB-WR] PASS t=824000 scenario=fill_burst push=fd depth=16
[MON-RD] t=826000 scenario=fill_burst rd_en=0 rdata=a5 full=1 empty=0
[MON-WR] t=832000 scenario=fill_burst wr_en=0 wdata=fd full=1 empty=0
[DRV] scenario=fill_burst wr_en=1 rd_en=0 wdata=fd @840000
[MON-RD] t=840000 scenario=fill_burst rd_en=0 rdata=a5 full=1 empty=0
[MON-WR] t=840000 scenario=fill_burst wr_en=0 wdata=fd full=1 empty=0
[MON-WR] t=848000 scenario=fill_burst wr_en=0 wdata=fd full=1 empty=0
[MON-RD] t=854000 scenario=fill_burst rd_en=0 rdata=a5 full=1 empty=0
[MON-WR] t=856000 scenario=fill_burst wr_en=1 wdata=68 full=1 empty=0
[SCB-WR] BLOCK t=856000 scenario=fill_burst full_pre=1 depth=16
[MON-WR] t=864000 scenario=fill_burst wr_en=0 wdata=68 full=1 empty=0
[DRV] scenario=fill_burst wr_en=1 rd_en=1 wdata=68 @868000
[MON-RD] t=868000 scenario=fill_burst rd_en=1 rdata=0 full=1 empty=0
[SCB-RD] PASS t=868000 scenario=fill_burst exp=0 got=0 depth_after=15
[MON-WR] t=872000 scenario=fill_burst wr_en=0 wdata=68 full=1 empty=0
[MON-WR] t=880000 scenario=fill_burst wr_en=1 wdata=ec full=1 empty=0
[SCB-WR] BLOCK t=880000 scenario=fill_burst full_pre=1 depth=15
[MON-RD] t=882000 scenario=fill_burst rd_en=0 rdata=0 full=1 empty=0
[MON-WR] t=888000 scenario=fill_burst wr_en=0 wdata=ec full=0 empty=0
[DRV] scenario=fill_burst wr_en=1 rd_en=0 wdata=ec @896000
[MON-RD] t=896000 scenario=fill_burst rd_en=0 rdata=0 full=0 empty=0
[MON-WR] t=896000 scenario=fill_burst wr_en=0 wdata=ec full=0 empty=0
[MON-WR] t=904000 scenario=fill_burst wr_en=0 wdata=ec full=0 empty=0
[MON-RD] t=910000 scenario=fill_burst rd_en=0 rdata=0 full=1 empty=0
[MON-WR] t=912000 scenario=fill_burst wr_en=1 wdata=6 full=1 empty=0
[SCB-WR] PASS t=912000 scenario=fill_burst push=6 depth=16
[MON-WR] t=920000 scenario=fill_burst wr_en=0 wdata=6 full=1 empty=0
[DRV] scenario=fill_burst wr_en=1 rd_en=0 wdata=6 @924000
[MON-RD] t=924000 scenario=fill_burst rd_en=0 rdata=0 full=1 empty=0
[MON-WR] t=928000 scenario=fill_burst wr_en=0 wdata=6 full=1 empty=0
[MON-WR] t=936000 scenario=fill_burst wr_en=1 wdata=7f full=1 empty=0
[SCB-WR] BLOCK t=936000 scenario=fill_burst full_pre=1 depth=16
[MON-RD] t=938000 scenario=fill_burst rd_en=0 rdata=0 full=1 empty=0
[MON-WR] t=944000 scenario=fill_burst wr_en=0 wdata=7f full=1 empty=0
[DRV] scenario=fill_burst wr_en=1 rd_en=0 wdata=7f @952000
[MON-RD] t=952000 scenario=fill_burst rd_en=0 rdata=0 full=1 empty=0
[MON-WR] t=952000 scenario=fill_burst wr_en=0 wdata=7f full=1 empty=0
[MON-WR] t=960000 scenario=fill_burst wr_en=0 wdata=7f full=1 empty=0
[MON-RD] t=966000 scenario=fill_burst rd_en=0 rdata=0 full=1 empty=0
[MON-WR] t=968000 scenario=fill_burst wr_en=1 wdata=3a full=1 empty=0
[SCB-WR] BLOCK t=968000 scenario=fill_burst full_pre=1 depth=16
[MON-WR] t=976000 scenario=fill_burst wr_en=0 wdata=3a full=1 empty=0
[DRV] scenario=fill_burst wr_en=1 rd_en=0 wdata=3a @980000
[MON-RD] t=980000 scenario=fill_burst rd_en=0 rdata=0 full=1 empty=0
[MON-WR] t=984000 scenario=fill_burst wr_en=0 wdata=3a full=1 empty=0
[MON-WR] t=992000 scenario=fill_burst wr_en=1 wdata=9 full=1 empty=0
[SCB-WR] BLOCK t=992000 scenario=fill_burst full_pre=1 depth=16
[MON-RD] t=994000 scenario=fill_burst rd_en=0 rdata=0 full=1 empty=0
