SystemVerilogProject/evidence/logs/sync_fifo_vivado.log
#-----------------------------------------------------------
# Vivado v2020.2 (64-bit)
# SW Build 3064766 on Wed Nov 18 09:12:45 MST 2020
# IP Build 3064653 on Wed Nov 18 14:17:31 MST 2020
# Start of session at: Sat Mar 21 02:26:16 2026
# Process ID: 30820
# Current directory: D:/02_learning_lab/fpga/portfoloio_uvm1
# Command line: vivado.exe -mode batch -source D:\02_learning_lab\fpga\portfoloio_uvm1\FPGA_Auto_Project\templates\contexts\simulation\adapters\tcl\sim_run_vivado_nogui.tcl -log D:\02_learning_lab\fpga\portfoloio_uvm1\FPGA_Auto_Project\Project\veri1\log\portfolio\sync_fifo_vivado.log -journal D:\02_learning_lab\fpga\portfoloio_uvm1\FPGA_Auto_Project\Project\veri1\log\portfolio\sync_fifo_vivado.jou -notrace -tclargs D:\02_learning_lab\fpga\portfoloio_uvm1\FPGA_Auto_Project\Project\veri1 tb_sync_fifo D:\Xilinx\Vivado\2024.1 D:\02_learning_lab\fpga\portfoloio_uvm1\FPGA_Auto_Project\Project\Veri1\output\manifest\manifest_src_files.lst D:\02_learning_lab\fpga\portfoloio_uvm1\FPGA_Auto_Project\Project\Veri1\output\manifest\manifest_tb_files.lst D:\02_learning_lab\fpga\portfoloio_uvm1\FPGA_Auto_Project\Project\Veri1\output\manifest\manifest_inc_dirs.lst D:\02_learning_lab\fpga\portfoloio_uvm1\FPGA_Auto_Project\Project\veri1\tb\sync_fifo\tb_sync_fifo.sv -testplusarg TESTNAME all
# Log file: D:/02_learning_lab/fpga/portfoloio_uvm1/FPGA_Auto_Project/Project/veri1/log/portfolio/sync_fifo_vivado.log
# Journal file: D:\02_learning_lab\fpga\portfoloio_uvm1\FPGA_Auto_Project\Project\veri1\log\portfolio\sync_fifo_vivado.jou
#-----------------------------------------------------------
source {D:\02_learning_lab\fpga\portfoloio_uvm1\FPGA_Auto_Project\templates\contexts\simulation\adapters\tcl\sim_run_vivado_nogui.tcl} -notrace
[INFO] Loading build config: D:/02_learning_lab/fpga/portfoloio_uvm1/FPGA_Auto_Project/templates/contexts/vivado/domain/project_build_config.tcl
[INFO] Applying TB scope filter by selected file folder: D:/02_learning_lab/fpga/portfoloio_uvm1/FPGA_Auto_Project/Project/Veri1/tb/sync_fifo
[INFO] Creating Vivado project: sim_nogui_tb_sync_fifo
[INFO] Project directory: D:/Xilinx/Vivado/2024.1/project/sim_nogui_tb_sync_fifo
create_project: Time (s): cpu = 00:00:03 ; elapsed = 00:00:06 . Memory (MB): peak = 1105.883 ; gain = 0.000
[INFO] Adding source files: 12
[INFO] Adding testbench files: 3
[INFO] Setting include dirs: 1
[INFO] Setting simulation top: tb_sync_fifo
[INFO] Setting xsim.more_options: -testplusarg TESTNAME=all
[INFO] Initial launch runtime set to 0ns (auto replay mode)
[INFO] Launching simulation in batch mode...
Command: launch_simulation 
INFO: [Vivado 12-5682] Launching behavioral simulation in 'D:/Xilinx/Vivado/2024.1/project/sim_nogui_tb_sync_fifo/sim_nogui_tb_sync_fifo.sim/sim_1/behav/xsim'
INFO: [SIM-utils-51] Simulation object is 'sim_1'
INFO: [SIM-utils-54] Inspecting design source files for 'tb_sync_fifo' in fileset 'sim_1'...
INFO: [USF-XSim-97] Finding global include files...
INFO: [USF-XSim-98] Fetching design files from 'sim_1'...
INFO: [USF-XSim-2] XSim::Compile design
INFO: [USF-XSim-61] Executing 'COMPILE and ANALYZE' step in 'D:/Xilinx/Vivado/2024.1/project/sim_nogui_tb_sync_fifo/sim_nogui_tb_sync_fifo.sim/sim_1/behav/xsim'
"xvlog --incr --relax -L uvm -prj tb_sync_fifo_vlog.prj"
INFO: [VRFC 10-2263] Analyzing SystemVerilog file "D:/02_learning_lab/fpga/portfoloio_uvm1/FPGA_Auto_Project/Project/Veri1/src/sync_fifo.sv" into library xil_defaultlib
INFO: [VRFC 10-311] analyzing module sync_fifo
INFO: [VRFC 10-2263] Analyzing SystemVerilog file "D:/02_learning_lab/fpga/portfoloio_uvm1/FPGA_Auto_Project/Project/Veri1/tb/sync_fifo/sync_fifo_if.sv" into library xil_defaultlib
INFO: [VRFC 10-2263] Analyzing SystemVerilog file "D:/02_learning_lab/fpga/portfoloio_uvm1/FPGA_Auto_Project/Project/Veri1/tb/sync_fifo/sync_fifo_tb_pkg.sv" into library xil_defaultlib
INFO: [VRFC 10-2263] Analyzing SystemVerilog file "D:/02_learning_lab/fpga/portfoloio_uvm1/FPGA_Auto_Project/Project/Veri1/tb/sync_fifo/tb_sync_fifo.sv" into library xil_defaultlib
INFO: [VRFC 10-311] analyzing module tb_sync_fifo
INFO: [VRFC 10-2263] Analyzing Verilog file "D:/Xilinx/Vivado/2024.1/project/sim_nogui_tb_sync_fifo/sim_nogui_tb_sync_fifo.sim/sim_1/behav/xsim/glbl.v" into library xil_defaultlib
INFO: [VRFC 10-311] analyzing module glbl
INFO: [USF-XSim-69] 'compile' step finished in '2' seconds
INFO: [USF-XSim-3] XSim::Elaborate design
INFO: [USF-XSim-61] Executing 'ELABORATE' step in 'D:/Xilinx/Vivado/2024.1/project/sim_nogui_tb_sync_fifo/sim_nogui_tb_sync_fifo.sim/sim_1/behav/xsim'
"xelab -wto 85ba8373f6e64c44a7fa53e8d3e20a77 --incr --debug typical --relax --mt 2 -L xil_defaultlib -L uvm -L unisims_ver -L unimacro_ver -L secureip --snapshot tb_sync_fifo_behav xil_defaultlib.tb_sync_fifo xil_defaultlib.glbl -log elaborate.log"
Vivado Simulator 2020.2
Copyright 1986-1999, 2001-2020 Xilinx, Inc. All Rights Reserved.
Running: C:/Xilinx/Vivado/2020.2/bin/unwrapped/win64.o/xelab.exe -wto 85ba8373f6e64c44a7fa53e8d3e20a77 --incr --debug typical --relax --mt 2 -L xil_defaultlib -L uvm -L unisims_ver -L unimacro_ver -L secureip --snapshot tb_sync_fifo_behav xil_defaultlib.tb_sync_fifo xil_defaultlib.glbl -log elaborate.log 
Using 2 slave threads.
Starting static elaboration
Pass Through NonSizing Optimizer
Completed static elaboration
Starting simulation data flow analysis
Completed simulation data flow analysis
Time Resolution for simulation is 1ps
Compiling package xil_defaultlib.sync_fifo_tb_pkg
Compiling package std.std
Compiling module xil_defaultlib.drv_cb
Compiling module xil_defaultlib.mon_cb
Compiling module xil_defaultlib.sync_fifo_if
Compiling module xil_defaultlib.sync_fifo_default
Compiling module xil_defaultlib.tb_sync_fifo
Compiling module xil_defaultlib.glbl
Built simulation snapshot tb_sync_fifo_behav

****** Webtalk v2020.2 (64-bit)
  **** SW Build 3064766 on Wed Nov 18 09:12:45 MST 2020
  **** IP Build 3064653 on Wed Nov 18 14:17:31 MST 2020
    ** Copyright 1986-2020 Xilinx, Inc. All Rights Reserved.

source D:/Xilinx/Vivado/2024.1/project/sim_nogui_tb_sync_fifo/sim_nogui_tb_sync_fifo.sim/sim_1/behav/xsim/xsim.dir/tb_sync_fifo_behav/webtalk/xsim_webtalk.tcl -notrace
INFO: [Common 17-206] Exiting Webtalk at Sat Mar 21 02:26:39 2026...
run_program: Time (s): cpu = 00:00:00 ; elapsed = 00:00:07 . Memory (MB): peak = 1105.883 ; gain = 0.000
INFO: [USF-XSim-69] 'elaborate' step finished in '7' seconds
INFO: [USF-XSim-4] XSim::Simulate design
INFO: [USF-XSim-61] Executing 'SIMULATE' step in 'D:/Xilinx/Vivado/2024.1/project/sim_nogui_tb_sync_fifo/sim_nogui_tb_sync_fifo.sim/sim_1/behav/xsim'
INFO: [USF-XSim-98] *** Running xsim
   with args "tb_sync_fifo_behav -key {Behavioral:sim_1:Functional:tb_sync_fifo} -tclbatch {tb_sync_fifo.tcl} -log {simulate.log} -testplusarg TESTNAME=all"
INFO: [USF-XSim-8] Loading simulator feature
Vivado Simulator 2020.2
Time resolution is 1 ps
source tb_sync_fifo.tcl
WARNING: Simulation object /tb_sync_fifo/env was not traceable in the design for the following reason:
Vivado Simulator does not support tracing of System Verilog Dynamic Type object.
[TB] Starting sync FIFO verification (UVM-inspired custom environment)
INFO: [USF-XSim-96] XSim completed. Design snapshot 'tb_sync_fifo_behav' loaded.
INFO: [USF-XSim-97] XSim simulation ran for 0ns
launch_simulation: Time (s): cpu = 00:00:00 ; elapsed = 00:00:11 . Memory (MB): peak = 1105.883 ; gain = 0.000
[INFO] Auto replay: restart + run all
INFO: [Simtcl 6-17] Simulation restarted
[TB] Starting sync FIFO verification (UVM-inspired custom environment)
[DRV] reset released
[GEN][PHASE] iter=0 scenario=fill_burst
[DRV] t=30000 scenario=fill_burst wr=1 rd=1 wdata=fd
[MON] t=30000 scenario=unclassified wr=0 rd=0 wdata=0 rdata=0 full=0 empty=1
[DRV] t=40000 scenario=fill_burst wr=1 rd=0 wdata=b4
[MON] t=40000 scenario=fill_burst wr=1 rd=1 wdata=fd rdata=0 full=0 empty=0
[SCB] BLOCK-RD t=40000 scenario=fill_burst pre_count=0
[DRV] t=50000 scenario=fill_burst wr=1 rd=0 wdata=9b
[MON] t=50000 scenario=fill_burst wr=1 rd=0 wdata=b4 rdata=0 full=0 empty=0
[DRV] t=60000 scenario=fill_burst wr=1 rd=0 wdata=56
[MON] t=60000 scenario=fill_burst wr=1 rd=0 wdata=9b rdata=0 full=0 empty=0
[DRV] t=70000 scenario=fill_burst wr=1 rd=0 wdata=4e
[MON] t=70000 scenario=fill_burst wr=1 rd=0 wdata=56 rdata=0 full=0 empty=0
[DRV] t=80000 scenario=fill_burst wr=1 rd=1 wdata=fc
[MON] t=80000 scenario=fill_burst wr=1 rd=0 wdata=4e rdata=0 full=0 empty=0
[DRV] t=90000 scenario=fill_burst wr=1 rd=0 wdata=f
[MON] t=90000 scenario=fill_burst wr=1 rd=1 wdata=fc rdata=fd full=0 empty=0
[SCB] PASS-RD t=90000 scenario=fill_burst exp=fd got=fd
[DRV] t=100000 scenario=fill_burst wr=1 rd=0 wdata=6d
[MON] t=100000 scenario=fill_burst wr=1 rd=0 wdata=f rdata=fd full=0 empty=0
[DRV] t=110000 scenario=fill_burst wr=1 rd=1 wdata=b
[MON] t=110000 scenario=fill_burst wr=1 rd=0 wdata=6d rdata=fd full=0 empty=0
[DRV] t=120000 scenario=fill_burst wr=1 rd=1 wdata=68
[MON] t=120000 scenario=fill_burst wr=1 rd=1 wdata=b rdata=b4 full=0 empty=0
[SCB] PASS-RD t=120000 scenario=fill_burst exp=b4 got=b4
[DRV] t=130000 scenario=fill_burst wr=1 rd=0 wdata=35
[MON] t=130000 scenario=fill_burst wr=1 rd=1 wdata=68 rdata=9b full=0 empty=0
[SCB] PASS-RD t=130000 scenario=fill_burst exp=9b got=9b
[DRV] t=140000 scenario=fill_burst wr=1 rd=0 wdata=3b
[MON] t=140000 scenario=fill_burst wr=1 rd=0 wdata=35 rdata=9b full=0 empty=0
[DRV] t=150000 scenario=fill_burst wr=1 rd=1 wdata=af
[MON] t=150000 scenario=fill_burst wr=1 rd=0 wdata=3b rdata=9b full=0 empty=0
[DRV] t=160000 scenario=fill_burst wr=1 rd=0 wdata=22
[MON] t=160000 scenario=fill_burst wr=1 rd=1 wdata=af rdata=56 full=0 empty=0
[SCB] PASS-RD t=160000 scenario=fill_burst exp=56 got=56
[DRV] t=170000 scenario=fill_burst wr=1 rd=0 wdata=2a
[MON] t=170000 scenario=fill_burst wr=1 rd=0 wdata=22 rdata=56 full=0 empty=0
[DRV] t=180000 scenario=fill_burst wr=1 rd=0 wdata=f4
[MON] t=180000 scenario=fill_burst wr=1 rd=0 wdata=2a rdata=56 full=0 empty=0
[DRV] t=190000 scenario=fill_burst wr=1 rd=0 wdata=7b
[MON] t=190000 scenario=fill_burst wr=1 rd=0 wdata=f4 rdata=56 full=0 empty=0
[DRV] t=200000 scenario=fill_burst wr=1 rd=0 wdata=29
[MON] t=200000 scenario=fill_burst wr=1 rd=0 wdata=7b rdata=56 full=0 empty=0
[DRV] t=210000 scenario=fill_burst wr=1 rd=1 wdata=9
[MON] t=210000 scenario=fill_burst wr=1 rd=0 wdata=29 rdata=56 full=0 empty=0
[DRV] t=220000 scenario=fill_burst wr=1 rd=0 wdata=bb
[MON] t=220000 scenario=fill_burst wr=1 rd=1 wdata=9 rdata=4e full=0 empty=0
[SCB] PASS-RD t=220000 scenario=fill_burst exp=4e got=4e
[DRV] t=230000 scenario=fill_burst wr=1 rd=0 wdata=fa
[MON] t=230000 scenario=fill_burst wr=1 rd=0 wdata=bb rdata=4e full=0 empty=0
[DRV] t=240000 scenario=fill_burst wr=1 rd=0 wdata=25
[MON] t=240000 scenario=fill_burst wr=1 rd=0 wdata=fa rdata=4e full=1 empty=0
[DRV] t=250000 scenario=fill_burst wr=1 rd=1 wdata=d
[MON] t=250000 scenario=fill_burst wr=1 rd=0 wdata=25 rdata=4e full=1 empty=0
[SCB] BLOCK-WR t=250000 scenario=fill_burst pre_count=16
[DRV] t=260000 scenario=fill_burst wr=1 rd=1 wdata=d7
[MON] t=260000 scenario=fill_burst wr=1 rd=1 wdata=d rdata=fc full=1 empty=0
[SCB] PASS-RD t=260000 scenario=fill_burst exp=fc got=fc
[DRV] t=270000 scenario=fill_burst wr=1 rd=0 wdata=e7
[MON] t=270000 scenario=fill_burst wr=1 rd=1 wdata=d7 rdata=f full=1 empty=0
[SCB] PASS-RD t=270000 scenario=fill_burst exp=f got=f
[DRV] t=280000 scenario=fill_burst wr=1 rd=0 wdata=9
[MON] t=280000 scenario=fill_burst wr=1 rd=0 wdata=e7 rdata=f full=1 empty=0
[SCB] BLOCK-WR t=280000 scenario=fill_burst pre_count=16
[DRV] t=290000 scenario=fill_burst wr=1 rd=0 wdata=f2
[MON] t=290000 scenario=fill_burst wr=1 rd=0 wdata=9 rdata=f full=1 empty=0
[SCB] BLOCK-WR t=290000 scenario=fill_burst pre_count=16
[DRV] t=300000 scenario=fill_burst wr=1 rd=1 wdata=4
[MON] t=300000 scenario=fill_burst wr=1 rd=0 wdata=f2 rdata=f full=1 empty=0
[SCB] BLOCK-WR t=300000 scenario=fill_burst pre_count=16
[DRV] t=310000 scenario=fill_burst wr=1 rd=1 wdata=4a
[MON] t=310000 scenario=fill_burst wr=1 rd=1 wdata=4 rdata=6d full=1 empty=0
[SCB] PASS-RD t=310000 scenario=fill_burst exp=6d got=6d
[DRV] t=320000 scenario=fill_burst wr=1 rd=0 wdata=55
[MON] t=320000 scenario=fill_burst wr=1 rd=1 wdata=4a rdata=b full=1 empty=0
[SCB] PASS-RD t=320000 scenario=fill_burst exp=b got=b
[DRV] t=330000 scenario=fill_burst wr=1 rd=0 wdata=33
[MON] t=330000 scenario=fill_burst wr=1 rd=0 wdata=55 rdata=b full=1 empty=0
[SCB] BLOCK-WR t=330000 scenario=fill_burst pre_count=16
[DRV] t=340000 scenario=fill_burst wr=1 rd=0 wdata=92
[MON] t=340000 scenario=fill_burst wr=1 rd=0 wdata=33 rdata=b full=1 empty=0
[SCB] BLOCK-WR t=340000 scenario=fill_burst pre_count=16
[DRV] t=350000 scenario=fill_burst wr=1 rd=0 wdata=b0
[MON] t=350000 scenario=fill_burst wr=1 rd=0 wdata=92 rdata=b full=1 empty=0
[SCB] BLOCK-WR t=350000 scenario=fill_burst pre_count=16
[DRV] t=360000 scenario=fill_burst wr=1 rd=0 wdata=8a
[MON] t=360000 scenario=fill_burst wr=1 rd=0 wdata=b0 rdata=b full=1 empty=0
[SCB] BLOCK-WR t=360000 scenario=fill_burst pre_count=16
[DRV] t=370000 scenario=fill_burst wr=1 rd=0 wdata=d8
[MON] t=370000 scenario=fill_burst wr=1 rd=0 wdata=8a rdata=b full=1 empty=0
[SCB] BLOCK-WR t=370000 scenario=fill_burst pre_count=16
[DRV] t=380000 scenario=fill_burst wr=1 rd=0 wdata=9
[MON] t=380000 scenario=fill_burst wr=1 rd=0 wdata=d8 rdata=b full=1 empty=0
[SCB] BLOCK-WR t=380000 scenario=fill_burst pre_count=16
[DRV] t=390000 scenario=fill_burst wr=1 rd=1 wdata=64
[MON] t=390000 scenario=fill_burst wr=1 rd=0 wdata=9 rdata=b full=1 empty=0
[SCB] BLOCK-WR t=390000 scenario=fill_burst pre_count=16
[DRV] t=400000 scenario=fill_burst wr=1 rd=0 wdata=43
[MON] t=400000 scenario=fill_burst wr=1 rd=1 wdata=64 rdata=68 full=1 empty=0
[SCB] PASS-RD t=400000 scenario=fill_burst exp=68 got=68
[DRV] t=410000 scenario=fill_burst wr=1 rd=0 wdata=63
[MON] t=410000 scenario=fill_burst wr=1 rd=0 wdata=43 rdata=68 full=1 empty=0
[SCB] BLOCK-WR t=410000 scenario=fill_burst pre_count=16
[DRV] t=420000 scenario=fill_burst wr=1 rd=0 wdata=9a
[MON] t=420000 scenario=fill_burst wr=1 rd=0 wdata=63 rdata=68 full=1 empty=0
[SCB] BLOCK-WR t=420000 scenario=fill_burst pre_count=16
[DRV] t=430000 scenario=fill_burst wr=1 rd=0 wdata=32
[MON] t=430000 scenario=fill_burst wr=1 rd=0 wdata=9a rdata=68 full=1 empty=0
[SCB] BLOCK-WR t=430000 scenario=fill_burst pre_count=16
[DRV] t=440000 scenario=fill_burst wr=1 rd=0 wdata=12
[MON] t=440000 scenario=fill_burst wr=1 rd=0 wdata=32 rdata=68 full=1 empty=0
[SCB] BLOCK-WR t=440000 scenario=fill_burst pre_count=16
[DRV] t=450000 scenario=fill_burst wr=1 rd=0 wdata=2b
[MON] t=450000 scenario=fill_burst wr=1 rd=0 wdata=12 rdata=68 full=1 empty=0
[SCB] BLOCK-WR t=450000 scenario=fill_burst pre_count=16
[DRV] t=460000 scenario=fill_burst wr=1 rd=0 wdata=3e
[MON] t=460000 scenario=fill_burst wr=1 rd=0 wdata=2b rdata=68 full=1 empty=0
[SCB] BLOCK-WR t=460000 scenario=fill_burst pre_count=16
[DRV] t=470000 scenario=fill_burst wr=1 rd=1 wdata=4d
[MON] t=470000 scenario=fill_burst wr=1 rd=0 wdata=3e rdata=68 full=1 empty=0
[SCB] BLOCK-WR t=470000 scenario=fill_burst pre_count=16
[DRV] t=480000 scenario=fill_burst wr=1 rd=1 wdata=c9
[MON] t=480000 scenario=fill_burst wr=1 rd=1 wdata=4d rdata=35 full=1 empty=0
[SCB] PASS-RD t=480000 scenario=fill_burst exp=35 got=35
[DRV] t=490000 scenario=fill_burst wr=1 rd=0 wdata=ca
[MON] t=490000 scenario=fill_burst wr=1 rd=1 wdata=c9 rdata=3b full=1 empty=0
[SCB] PASS-RD t=490000 scenario=fill_burst exp=3b got=3b
[DRV] t=500000 scenario=fill_burst wr=1 rd=0 wdata=77
[MON] t=500000 scenario=fill_burst wr=1 rd=0 wdata=ca rdata=3b full=1 empty=0
[SCB] BLOCK-WR t=500000 scenario=fill_burst pre_count=16
[DRV] t=510000 scenario=fill_burst wr=1 rd=0 wdata=e2
[MON] t=510000 scenario=fill_burst wr=1 rd=0 wdata=77 rdata=3b full=1 empty=0
[SCB] BLOCK-WR t=510000 scenario=fill_burst pre_count=16
[DRV] t=520000 scenario=fill_burst wr=1 rd=0 wdata=71
[MON] t=520000 scenario=fill_burst wr=1 rd=0 wdata=e2 rdata=3b full=1 empty=0
[SCB] BLOCK-WR t=520000 scenario=fill_burst pre_count=16
[DRV] t=530000 scenario=fill_burst wr=1 rd=0 wdata=73
[MON] t=530000 scenario=fill_burst wr=1 rd=0 wdata=71 rdata=3b full=1 empty=0
[SCB] BLOCK-WR t=530000 scenario=fill_burst pre_count=16
[DRV] t=540000 scenario=fill_burst wr=1 rd=0 wdata=81
[MON] t=540000 scenario=fill_burst wr=1 rd=0 wdata=73 rdata=3b full=1 empty=0
[SCB] BLOCK-WR t=540000 scenario=fill_burst pre_count=16
[DRV] t=550000 scenario=fill_burst wr=1 rd=0 wdata=ed
[MON] t=550000 scenario=fill_burst wr=1 rd=0 wdata=81 rdata=3b full=1 empty=0
[SCB] BLOCK-WR t=550000 scenario=fill_burst pre_count=16
[DRV] t=560000 scenario=fill_burst wr=1 rd=0 wdata=9d
[MON] t=560000 scenario=fill_burst wr=1 rd=0 wdata=ed rdata=3b full=1 empty=0
[SCB] BLOCK-WR t=560000 scenario=fill_burst pre_count=16
[DRV] t=570000 scenario=fill_burst wr=1 rd=1 wdata=b0
[MON] t=570000 scenario=fill_burst wr=1 rd=0 wdata=9d rdata=3b full=1 empty=0
[SCB] BLOCK-WR t=570000 scenario=fill_burst pre_count=16
[DRV] t=580000 scenario=fill_burst wr=1 rd=0 wdata=9
[MON] t=580000 scenario=fill_burst wr=1 rd=1 wdata=b0 rdata=af full=1 empty=0
[SCB] PASS-RD t=580000 scenario=fill_burst exp=af got=af
[DRV] t=590000 scenario=fill_burst wr=1 rd=0 wdata=7e
[MON] t=590000 scenario=fill_burst wr=1 rd=0 wdata=9 rdata=af full=1 empty=0
[SCB] BLOCK-WR t=590000 scenario=fill_burst pre_count=16
[DRV] t=600000 scenario=fill_burst wr=1 rd=0 wdata=26
[MON] t=600000 scenario=fill_burst wr=1 rd=0 wdata=7e rdata=af full=1 empty=0
[SCB] BLOCK-WR t=600000 scenario=fill_burst pre_count=16
[DRV] t=610000 scenario=fill_burst wr=1 rd=0 wdata=b0
[MON] t=610000 scenario=fill_burst wr=1 rd=0 wdata=26 rdata=af full=1 empty=0
[SCB] BLOCK-WR t=610000 scenario=fill_burst pre_count=16
[DRV] t=620000 scenario=fill_burst wr=1 rd=1 wdata=1f
[MON] t=620000 scenario=fill_burst wr=1 rd=0 wdata=b0 rdata=af full=1 empty=0
[SCB] BLOCK-WR t=620000 scenario=fill_burst pre_count=16
[DRV] t=630000 scenario=fill_burst wr=1 rd=0 wdata=16
[MON] t=630000 scenario=fill_burst wr=1 rd=1 wdata=1f rdata=22 full=1 empty=0
[SCB] PASS-RD t=630000 scenario=fill_burst exp=22 got=22
[DRV] t=640000 scenario=fill_burst wr=1 rd=0 wdata=e2
[MON] t=640000 scenario=fill_burst wr=1 rd=0 wdata=16 rdata=22 full=1 empty=0
[SCB] BLOCK-WR t=640000 scenario=fill_burst pre_count=16
[DRV] t=650000 scenario=fill_burst wr=1 rd=0 wdata=d7
[MON] t=650000 scenario=fill_burst wr=1 rd=0 wdata=e2 rdata=22 full=1 empty=0
[SCB] BLOCK-WR t=650000 scenario=fill_burst pre_count=16
[DRV] t=660000 scenario=fill_burst wr=1 rd=1 wdata=96
[MON] t=660000 scenario=fill_burst wr=1 rd=0 wdata=d7 rdata=22 full=1 empty=0
[SCB] BLOCK-WR t=660000 scenario=fill_burst pre_count=16
[GEN][PHASE] iter=64 scenario=simul_stress
[DRV] t=670000 scenario=simul_stress wr=1 rd=1 wdata=c4
[MON] t=670000 scenario=fill_burst wr=1 rd=1 wdata=96 rdata=2a full=1 empty=0
[SCB] PASS-RD t=670000 scenario=fill_burst exp=2a got=2a
[DRV] t=680000 scenario=simul_stress wr=1 rd=1 wdata=2a
[MON] t=680000 scenario=simul_stress wr=1 rd=1 wdata=c4 rdata=f4 full=1 empty=0
[SCB] PASS-RD t=680000 scenario=simul_stress exp=f4 got=f4
[DRV] t=690000 scenario=simul_stress wr=1 rd=1 wdata=c7
[MON] t=690000 scenario=simul_stress wr=1 rd=1 wdata=2a rdata=7b full=1 empty=0
[SCB] PASS-RD t=690000 scenario=simul_stress exp=7b got=7b
[DRV] t=700000 scenario=simul_stress wr=1 rd=1 wdata=f7
[MON] t=700000 scenario=simul_stress wr=1 rd=1 wdata=c7 rdata=29 full=1 empty=0
[SCB] PASS-RD t=700000 scenario=simul_stress exp=29 got=29
[DRV] t=710000 scenario=simul_stress wr=1 rd=1 wdata=6a
[MON] t=710000 scenario=simul_stress wr=1 rd=1 wdata=f7 rdata=9 full=1 empty=0
[SCB] PASS-RD t=710000 scenario=simul_stress exp=9 got=9
[DRV] t=720000 scenario=simul_stress wr=1 rd=1 wdata=9f
[MON] t=720000 scenario=simul_stress wr=1 rd=1 wdata=6a rdata=bb full=1 empty=0
[SCB] PASS-RD t=720000 scenario=simul_stress exp=bb got=bb
[DRV] t=730000 scenario=simul_stress wr=1 rd=1 wdata=4e
[MON] t=730000 scenario=simul_stress wr=1 rd=1 wdata=9f rdata=fa full=1 empty=0
[SCB] PASS-RD t=730000 scenario=simul_stress exp=fa got=fa
[DRV] t=740000 scenario=simul_stress wr=1 rd=1 wdata=ec
[MON] t=740000 scenario=simul_stress wr=1 rd=1 wdata=4e rdata=d full=1 empty=0
[SCB] PASS-RD t=740000 scenario=simul_stress exp=d got=d
[DRV] t=750000 scenario=simul_stress wr=1 rd=1 wdata=6d
[MON] t=750000 scenario=simul_stress wr=1 rd=1 wdata=ec rdata=d7 full=1 empty=0
[SCB] PASS-RD t=750000 scenario=simul_stress exp=d7 got=d7
[DRV] t=760000 scenario=simul_stress wr=1 rd=1 wdata=66
[MON] t=760000 scenario=simul_stress wr=1 rd=1 wdata=6d rdata=4 full=1 empty=0
[SCB] PASS-RD t=760000 scenario=simul_stress exp=4 got=4
[DRV] t=770000 scenario=simul_stress wr=1 rd=1 wdata=d5
[MON] t=770000 scenario=simul_stress wr=1 rd=1 wdata=66 rdata=4a full=1 empty=0
[SCB] PASS-RD t=770000 scenario=simul_stress exp=4a got=4a
[DRV] t=780000 scenario=simul_stress wr=1 rd=1 wdata=a0
[MON] t=780000 scenario=simul_stress wr=1 rd=1 wdata=d5 rdata=64 full=1 empty=0
[SCB] PASS-RD t=780000 scenario=simul_stress exp=64 got=64
[DRV] t=790000 scenario=simul_stress wr=1 rd=1 wdata=68
[MON] t=790000 scenario=simul_stress wr=1 rd=1 wdata=a0 rdata=4d full=1 empty=0
[SCB] PASS-RD t=790000 scenario=simul_stress exp=4d got=4d
[DRV] t=800000 scenario=simul_stress wr=1 rd=1 wdata=6e
[MON] t=800000 scenario=simul_stress wr=1 rd=1 wdata=68 rdata=c9 full=1 empty=0
[SCB] PASS-RD t=800000 scenario=simul_stress exp=c9 got=c9
[DRV] t=810000 scenario=simul_stress wr=1 rd=1 wdata=9d
[MON] t=810000 scenario=simul_stress wr=1 rd=1 wdata=6e rdata=b0 full=1 empty=0
[SCB] PASS-RD t=810000 scenario=simul_stress exp=b0 got=b0
[DRV] t=820000 scenario=simul_stress wr=1 rd=1 wdata=88
[MON] t=820000 scenario=simul_stress wr=1 rd=1 wdata=9d rdata=1f full=1 empty=0
[SCB] PASS-RD t=820000 scenario=simul_stress exp=1f got=1f
[DRV] t=830000 scenario=simul_stress wr=1 rd=1 wdata=b1
[MON] t=830000 scenario=simul_stress wr=1 rd=1 wdata=88 rdata=96 full=1 empty=0
[SCB] PASS-RD t=830000 scenario=simul_stress exp=96 got=96
[DRV] t=840000 scenario=simul_stress wr=1 rd=1 wdata=b8
[MON] t=840000 scenario=simul_stress wr=1 rd=1 wdata=b1 rdata=c4 full=1 empty=0
[SCB] PASS-RD t=840000 scenario=simul_stress exp=c4 got=c4
[DRV] t=850000 scenario=simul_stress wr=1 rd=1 wdata=ad
[MON] t=850000 scenario=simul_stress wr=1 rd=1 wdata=b8 rdata=2a full=1 empty=0
[SCB] PASS-RD t=850000 scenario=simul_stress exp=2a got=2a
[DRV] t=860000 scenario=simul_stress wr=1 rd=1 wdata=e7
[MON] t=860000 scenario=simul_stress wr=1 rd=1 wdata=ad rdata=c7 full=1 empty=0
[SCB] PASS-RD t=860000 scenario=simul_stress exp=c7 got=c7
[DRV] t=870000 scenario=simul_stress wr=1 rd=1 wdata=c8
[MON] t=870000 scenario=simul_stress wr=1 rd=1 wdata=e7 rdata=f7 full=1 empty=0
[SCB] PASS-RD t=870000 scenario=simul_stress exp=f7 got=f7
[DRV] t=880000 scenario=simul_stress wr=1 rd=1 wdata=e2
[MON] t=880000 scenario=simul_stress wr=1 rd=1 wdata=c8 rdata=6a full=1 empty=0
[SCB] PASS-RD t=880000 scenario=simul_stress exp=6a got=6a
[DRV] t=890000 scenario=simul_stress wr=1 rd=1 wdata=28
[MON] t=890000 scenario=simul_stress wr=1 rd=1 wdata=e2 rdata=9f full=1 empty=0
[SCB] PASS-RD t=890000 scenario=simul_stress exp=9f got=9f
[DRV] t=900000 scenario=simul_stress wr=1 rd=1 wdata=6f
[MON] t=900000 scenario=simul_stress wr=1 rd=1 wdata=28 rdata=4e full=1 empty=0
[SCB] PASS-RD t=900000 scenario=simul_stress exp=4e got=4e
[DRV] t=910000 scenario=simul_stress wr=1 rd=1 wdata=e
[MON] t=910000 scenario=simul_stress wr=1 rd=1 wdata=6f rdata=ec full=1 empty=0
[SCB] PASS-RD t=910000 scenario=simul_stress exp=ec got=ec
[DRV] t=920000 scenario=simul_stress wr=1 rd=1 wdata=eb
[MON] t=920000 scenario=simul_stress wr=1 rd=1 wdata=e rdata=6d full=1 empty=0
[SCB] PASS-RD t=920000 scenario=simul_stress exp=6d got=6d
[DRV] t=930000 scenario=simul_stress wr=1 rd=1 wdata=d
[MON] t=930000 scenario=simul_stress wr=1 rd=1 wdata=eb rdata=66 full=1 empty=0
[SCB] PASS-RD t=930000 scenario=simul_stress exp=66 got=66
[DRV] t=940000 scenario=simul_stress wr=1 rd=1 wdata=2d
[MON] t=940000 scenario=simul_stress wr=1 rd=1 wdata=d rdata=d5 full=1 empty=0
[SCB] PASS-RD t=940000 scenario=simul_stress exp=d5 got=d5
[DRV] t=950000 scenario=simul_stress wr=1 rd=1 wdata=84
[MON] t=950000 scenario=simul_stress wr=1 rd=1 wdata=2d rdata=a0 full=1 empty=0
[SCB] PASS-RD t=950000 scenario=simul_stress exp=a0 got=a0
[DRV] t=960000 scenario=simul_stress wr=1 rd=1 wdata=4
[MON] t=960000 scenario=simul_stress wr=1 rd=1 wdata=84 rdata=68 full=1 empty=0
[SCB] PASS-RD t=960000 scenario=simul_stress exp=68 got=68
[DRV] t=970000 scenario=simul_stress wr=1 rd=1 wdata=41
