SystemVerilogProject/SV_Verification/evidence/logs/async_fifo_src_vivado.log
#-----------------------------------------------------------
# Vivado v2020.2 (64-bit)
# SW Build 3064766 on Wed Nov 18 09:12:45 MST 2020
# IP Build 3064653 on Wed Nov 18 14:17:31 MST 2020
# Start of session at: Thu Mar 19 12:49:11 2026
# Process ID: 33780
# Current directory: D:/02_learning_lab/fpga/portfoloio_uvm1
# Command line: vivado.exe -mode batch -source D:/02_learning_lab/fpga/portfoloio_uvm1/FPGA_Auto_Project/templates/contexts/simulation/adapters/tcl/sim_run_vivado_nogui.tcl -log D:/02_learning_lab/fpga/portfoloio_uvm1/FPGA_Auto_Project/Project/veri1/tb/async_fifo/vivado_sim_tb_async_fifo.log -journal D:/02_learning_lab/fpga/portfoloio_uvm1/FPGA_Auto_Project/Project/veri1/tb/async_fifo/vivado_sim_tb_async_fifo.jou -notrace -tclargs D:/02_learning_lab/fpga/portfoloio_uvm1/FPGA_Auto_Project/Project/veri1 tb_async_fifo D:/02_learning_lab/fpga/portfoloio_uvm1/FPGA_Auto_Project/Project/veri1/vivado_project D:/02_learning_lab/fpga/portfoloio_uvm1/FPGA_Auto_Project/Project/veri1/output/manifest/manifest_src_files.lst D:/02_learning_lab/fpga/portfoloio_uvm1/FPGA_Auto_Project/Project/veri1/output/manifest/manifest_tb_files.lst D:/02_learning_lab/fpga/portfoloio_uvm1/FPGA_Auto_Project/Project/veri1/output/manifest/manifest_inc_dirs.lst D:/02_learning_lab/fpga/portfoloio_uvm1/FPGA_Auto_Project/Project/veri1/tb/async_fifo/tb_async_fifo.sv -testplusarg TESTNAME=all -testplusarg CSV_SUMMARY=D:/02_learning_lab/fpga/portfoloio_uvm1/FPGA_Auto_Project/Project/veri1/output/analytics/tb_csv/async_fifo_src_summary.csv -testplusarg CSV_SCENARIO=D:/02_learning_lab/fpga/portfoloio_uvm1/FPGA_Auto_Project/Project/veri1/output/analytics/tb_csv/async_fifo_src_scenarios.csv -testplusarg CSV_TRACE=D:/02_learning_lab/fpga/portfoloio_uvm1/FPGA_Auto_Project/Project/veri1/output/analytics/tb_csv/async_fifo_src_trace.csv
# Log file: D:/02_learning_lab/fpga/portfoloio_uvm1/FPGA_Auto_Project/Project/veri1/tb/async_fifo/vivado_sim_tb_async_fifo.log
# Journal file: D:/02_learning_lab/fpga/portfoloio_uvm1/FPGA_Auto_Project/Project/veri1/tb/async_fifo/vivado_sim_tb_async_fifo.jou
#-----------------------------------------------------------
source D:/02_learning_lab/fpga/portfoloio_uvm1/FPGA_Auto_Project/templates/contexts/simulation/adapters/tcl/sim_run_vivado_nogui.tcl -notrace
[INFO] Loading build config: D:/02_learning_lab/fpga/portfoloio_uvm1/FPGA_Auto_Project/templates/contexts/vivado/domain/project_build_config.tcl
[INFO] Applying TB scope filter by selected file folder: D:/02_learning_lab/fpga/portfoloio_uvm1/FPGA_Auto_Project/Project/Veri1/tb/async_fifo
[INFO] Creating Vivado project: sim_nogui_tb_async_fifo
[INFO] Project directory: D:/02_learning_lab/fpga/portfoloio_uvm1/FPGA_Auto_Project/Project/Veri1/vivado_project/project/sim_nogui_tb_async_fifo
INFO: [ProjectBase 1-489] The host OS only allows 260 characters in a normal path. The project is stored in a path with more than 80 characters. If you experience issues with IP, Block Designs, or files not being found, please consider moving the project to a location with a shorter path. Alternately consider using the OS subst command to map part of the path to a drive letter.
Current project path is 'D:/02_learning_lab/fpga/portfoloio_uvm1/FPGA_Auto_Project/Project/Veri1/vivado_project/project/sim_nogui_tb_async_fifo'
[INFO] Adding source files: 6
[INFO] Adding testbench files: 3
[INFO] Setting include dirs: 1
[INFO] Setting simulation top: tb_async_fifo
[INFO] Setting xsim.more_options: -testplusarg TESTNAME=all -testplusarg CSV_SUMMARY=D:/02_learning_lab/fpga/portfoloio_uvm1/FPGA_Auto_Project/Project/veri1/output/analytics/tb_csv/async_fifo_src_summary.csv -testplusarg CSV_SCENARIO=D:/02_learning_lab/fpga/portfoloio_uvm1/FPGA_Auto_Project/Project/veri1/output/analytics/tb_csv/async_fifo_src_scenarios.csv -testplusarg CSV_TRACE=D:/02_learning_lab/fpga/portfoloio_uvm1/FPGA_Auto_Project/Project/veri1/output/analytics/tb_csv/async_fifo_src_trace.csv
[INFO] Initial launch runtime set to 0ns (auto replay mode)
[INFO] Launching simulation in batch mode...
Command: launch_simulation 
INFO: [Vivado 12-5682] Launching behavioral simulation in 'D:/02_learning_lab/fpga/portfoloio_uvm1/FPGA_Auto_Project/Project/Veri1/vivado_project/project/sim_nogui_tb_async_fifo/sim_nogui_tb_async_fifo.sim/sim_1/behav/xsim'
INFO: [SIM-utils-51] Simulation object is 'sim_1'
INFO: [SIM-utils-54] Inspecting design source files for 'tb_async_fifo' in fileset 'sim_1'...
INFO: [USF-XSim-97] Finding global include files...
INFO: [USF-XSim-98] Fetching design files from 'sim_1'...
INFO: [USF-XSim-2] XSim::Compile design
INFO: [USF-XSim-61] Executing 'COMPILE and ANALYZE' step in 'D:/02_learning_lab/fpga/portfoloio_uvm1/FPGA_Auto_Project/Project/Veri1/vivado_project/project/sim_nogui_tb_async_fifo/sim_nogui_tb_async_fifo.sim/sim_1/behav/xsim'
"xvlog --incr --relax -L uvm -prj tb_async_fifo_vlog.prj"
INFO: [VRFC 10-2263] Analyzing SystemVerilog file "D:/02_learning_lab/fpga/portfoloio_uvm1/FPGA_Auto_Project/Project/Veri1/src/async_fifo.sv" into library xil_defaultlib
INFO: [VRFC 10-311] analyzing module async_fifo
INFO: [VRFC 10-2263] Analyzing SystemVerilog file "D:/02_learning_lab/fpga/portfoloio_uvm1/FPGA_Auto_Project/Project/Veri1/tb/async_fifo/async_fifo_if.sv" into library xil_defaultlib
INFO: [VRFC 10-2263] Analyzing SystemVerilog file "D:/02_learning_lab/fpga/portfoloio_uvm1/FPGA_Auto_Project/Project/Veri1/tb/async_fifo/async_fifo_tb_pkg.sv" into library xil_defaultlib
INFO: [VRFC 10-2263] Analyzing SystemVerilog file "D:/02_learning_lab/fpga/portfoloio_uvm1/FPGA_Auto_Project/Project/Veri1/tb/async_fifo/tb_async_fifo.sv" into library xil_defaultlib
INFO: [VRFC 10-311] analyzing module tb_async_fifo
INFO: [VRFC 10-2263] Analyzing Verilog file "D:/02_learning_lab/fpga/portfoloio_uvm1/FPGA_Auto_Project/Project/Veri1/vivado_project/project/sim_nogui_tb_async_fifo/sim_nogui_tb_async_fifo.sim/sim_1/behav/xsim/glbl.v" into library xil_defaultlib
INFO: [VRFC 10-311] analyzing module glbl
INFO: [USF-XSim-69] 'compile' step finished in '1' seconds
INFO: [USF-XSim-3] XSim::Elaborate design
INFO: [USF-XSim-61] Executing 'ELABORATE' step in 'D:/02_learning_lab/fpga/portfoloio_uvm1/FPGA_Auto_Project/Project/Veri1/vivado_project/project/sim_nogui_tb_async_fifo/sim_nogui_tb_async_fifo.sim/sim_1/behav/xsim'
"xelab -wto fd0fd79c9428481bafe980b4e88f64db --incr --debug typical --relax --mt 2 -L xil_defaultlib -L uvm -L unisims_ver -L unimacro_ver -L secureip --snapshot tb_async_fifo_behav xil_defaultlib.tb_async_fifo xil_defaultlib.glbl -log elaborate.log"
Vivado Simulator 2020.2
Copyright 1986-1999, 2001-2020 Xilinx, Inc. All Rights Reserved.
Running: C:/Xilinx/Vivado/2020.2/bin/unwrapped/win64.o/xelab.exe -wto fd0fd79c9428481bafe980b4e88f64db --incr --debug typical --relax --mt 2 -L xil_defaultlib -L uvm -L unisims_ver -L unimacro_ver -L secureip --snapshot tb_async_fifo_behav xil_defaultlib.tb_async_fifo xil_defaultlib.glbl -log elaborate.log 
Using 2 slave threads.
Starting static elaboration
Pass Through NonSizing Optimizer
Completed static elaboration
Starting simulation data flow analysis
Completed simulation data flow analysis
Time Resolution for simulation is 1ps
Compiling package xil_defaultlib.async_fifo_tb_pkg
Compiling package std.std
Compiling module xil_defaultlib.async_fifo_if
Compiling module xil_defaultlib.async_fifo_default
Compiling module xil_defaultlib.tb_async_fifo
Compiling module xil_defaultlib.glbl
Built simulation snapshot tb_async_fifo_behav

****** Webtalk v2020.2 (64-bit)
  **** SW Build 3064766 on Wed Nov 18 09:12:45 MST 2020
  **** IP Build 3064653 on Wed Nov 18 14:17:31 MST 2020
    ** Copyright 1986-2020 Xilinx, Inc. All Rights Reserved.

source D:/02_learning_lab/fpga/portfoloio_uvm1/FPGA_Auto_Project/Project/Veri1/vivado_project/project/sim_nogui_tb_async_fifo/sim_nogui_tb_async_fifo.sim/sim_1/behav/xsim/xsim.dir/tb_async_fifo_behav/webtalk/xsim_webtalk.tcl -notrace
INFO: [Common 17-206] Exiting Webtalk at Thu Mar 19 12:49:29 2026...
INFO: [USF-XSim-69] 'elaborate' step finished in '5' seconds
INFO: [USF-XSim-4] XSim::Simulate design
INFO: [USF-XSim-61] Executing 'SIMULATE' step in 'D:/02_learning_lab/fpga/portfoloio_uvm1/FPGA_Auto_Project/Project/Veri1/vivado_project/project/sim_nogui_tb_async_fifo/sim_nogui_tb_async_fifo.sim/sim_1/behav/xsim'
INFO: [USF-XSim-98] *** Running xsim
   with args "tb_async_fifo_behav -key {Behavioral:sim_1:Functional:tb_async_fifo} -tclbatch {tb_async_fifo.tcl} -log {simulate.log} -testplusarg TESTNAME=all -testplusarg CSV_SUMMARY=D:/02_learning_lab/fpga/portfoloio_uvm1/FPGA_Auto_Project/Project/veri1/output/analytics/tb_csv/async_fifo_src_summary.csv -testplusarg CSV_SCENARIO=D:/02_learning_lab/fpga/portfoloio_uvm1/FPGA_Auto_Project/Project/veri1/output/analytics/tb_csv/async_fifo_src_scenarios.csv -testplusarg CSV_TRACE=D:/02_learning_lab/fpga/portfoloio_uvm1/FPGA_Auto_Project/Project/veri1/output/analytics/tb_csv/async_fifo_src_trace.csv"
INFO: [USF-XSim-8] Loading simulator feature
Vivado Simulator 2020.2
Time resolution is 1 ps
source tb_async_fifo.tcl
WARNING: Simulation object /tb_async_fifo/env was not traceable in the design for the following reason:
Vivado Simulator does not support tracing of System Verilog Dynamic Type object.
[TB] Starting async_fifo verification (UVM-inspired custom environment)
INFO: [USF-XSim-96] XSim completed. Design snapshot 'tb_async_fifo_behav' loaded.
INFO: [USF-XSim-97] XSim simulation ran for 0ns
launch_simulation: Time (s): cpu = 00:00:00 ; elapsed = 00:00:08 . Memory (MB): peak = 1106.262 ; gain = 0.000
[INFO] Auto replay: restart + run all
INFO: [Simtcl 6-17] Simulation restarted
[TB] Starting async_fifo verification (UVM-inspired custom environment)
[DRV] reset released
[GEN][PHASE] iter=0 scenario=fill_burst
[MON-WR] t=69000 scenario=fill_burst wr_en=1 wdata=64 full=0 empty=1
[SCB-WR] PASS t=69000 scenario=fill_burst push=64 depth=1
[MON-WR] t=77000 scenario=fill_burst wr_en=0 wdata=64 full=0 empty=1
[MON-RD] t=78000 scenario=fill_burst rd_en=1 rdata=0 full=0 empty=1
[SCB-RD] BLOCK t=78000 scenario=fill_burst empty_pre=1 depth=1
[DRV] scenario=fill_burst wr_en=1 rd_en=1 wdata=64 @84000
[MON-WR] t=85000 scenario=fill_burst wr_en=0 wdata=64 full=0 empty=1
[MON-RD] t=92000 scenario=fill_burst rd_en=0 rdata=0 full=0 empty=1
[MON-WR] t=93000 scenario=fill_burst wr_en=1 wdata=f1 full=0 empty=1
[SCB-WR] PASS t=93000 scenario=fill_burst push=f1 depth=2
[MON-WR] t=101000 scenario=fill_burst wr_en=0 wdata=f1 full=0 empty=1
[MON-RD] t=106000 scenario=fill_burst rd_en=0 rdata=0 full=0 empty=0
[MON-WR] t=109000 scenario=fill_burst wr_en=0 wdata=f1 full=0 empty=0
[DRV] scenario=fill_burst wr_en=1 rd_en=0 wdata=f1 @112000
[MON-WR] t=117000 scenario=fill_burst wr_en=0 wdata=f1 full=0 empty=0
[MON-RD] t=120000 scenario=fill_burst rd_en=0 rdata=0 full=0 empty=0
[MON-WR] t=125000 scenario=fill_burst wr_en=1 wdata=3f full=0 empty=0
[SCB-WR] PASS t=125000 scenario=fill_burst push=3f depth=3
[MON-WR] t=133000 scenario=fill_burst wr_en=0 wdata=3f full=0 empty=0
[MON-RD] t=134000 scenario=fill_burst rd_en=0 rdata=0 full=0 empty=0
[DRV] scenario=fill_burst wr_en=1 rd_en=0 wdata=3f @140000
[MON-WR] t=141000 scenario=fill_burst wr_en=0 wdata=3f full=0 empty=0
[MON-RD] t=148000 scenario=fill_burst rd_en=0 rdata=0 full=0 empty=0
[MON-WR] t=149000 scenario=fill_burst wr_en=1 wdata=c5 full=0 empty=0
[SCB-WR] PASS t=149000 scenario=fill_burst push=c5 depth=4
[MON-WR] t=157000 scenario=fill_burst wr_en=0 wdata=c5 full=0 empty=0
[MON-RD] t=162000 scenario=fill_burst rd_en=0 rdata=0 full=0 empty=0
[MON-WR] t=165000 scenario=fill_burst wr_en=0 wdata=c5 full=0 empty=0
[DRV] scenario=fill_burst wr_en=1 rd_en=0 wdata=c5 @168000
[MON-WR] t=173000 scenario=fill_burst wr_en=0 wdata=c5 full=0 empty=0
[MON-RD] t=176000 scenario=fill_burst rd_en=0 rdata=0 full=0 empty=0
[MON-WR] t=181000 scenario=fill_burst wr_en=1 wdata=61 full=0 empty=0
[SCB-WR] PASS t=181000 scenario=fill_burst push=61 depth=5
[MON-WR] t=189000 scenario=fill_burst wr_en=0 wdata=61 full=0 empty=0
[MON-RD] t=190000 scenario=fill_burst rd_en=0 rdata=0 full=0 empty=0
[DRV] scenario=fill_burst wr_en=1 rd_en=0 wdata=61 @196000
[MON-WR] t=197000 scenario=fill_burst wr_en=0 wdata=61 full=0 empty=0
[MON-RD] t=204000 scenario=fill_burst rd_en=0 rdata=0 full=0 empty=0
[MON-WR] t=205000 scenario=fill_burst wr_en=1 wdata=21 full=0 empty=0
[SCB-WR] PASS t=205000 scenario=fill_burst push=21 depth=6
[MON-WR] t=213000 scenario=fill_burst wr_en=0 wdata=21 full=0 empty=0
[MON-RD] t=218000 scenario=fill_burst rd_en=0 rdata=0 full=0 empty=0
[MON-WR] t=221000 scenario=fill_burst wr_en=0 wdata=21 full=0 empty=0
[DRV] scenario=fill_burst wr_en=1 rd_en=0 wdata=21 @224000
[MON-WR] t=229000 scenario=fill_burst wr_en=0 wdata=21 full=0 empty=0
[MON-RD] t=232000 scenario=fill_burst rd_en=0 rdata=0 full=0 empty=0
[MON-WR] t=237000 scenario=fill_burst wr_en=1 wdata=b4 full=0 empty=0
[SCB-WR] PASS t=237000 scenario=fill_burst push=b4 depth=7
[MON-WR] t=245000 scenario=fill_burst wr_en=0 wdata=b4 full=0 empty=0
[MON-RD] t=246000 scenario=fill_burst rd_en=0 rdata=0 full=0 empty=0
[DRV] scenario=fill_burst wr_en=1 rd_en=0 wdata=b4 @252000
[MON-WR] t=253000 scenario=fill_burst wr_en=0 wdata=b4 full=0 empty=0
[MON-RD] t=260000 scenario=fill_burst rd_en=0 rdata=0 full=0 empty=0
[MON-WR] t=261000 scenario=fill_burst wr_en=1 wdata=eb full=0 empty=0
[SCB-WR] PASS t=261000 scenario=fill_burst push=eb depth=8
[MON-WR] t=269000 scenario=fill_burst wr_en=0 wdata=eb full=0 empty=0
[MON-RD] t=274000 scenario=fill_burst rd_en=0 rdata=0 full=0 empty=0
[MON-WR] t=277000 scenario=fill_burst wr_en=0 wdata=eb full=0 empty=0
[DRV] scenario=fill_burst wr_en=1 rd_en=0 wdata=eb @280000
[MON-WR] t=285000 scenario=fill_burst wr_en=0 wdata=eb full=0 empty=0
[MON-RD] t=288000 scenario=fill_burst rd_en=0 rdata=0 full=0 empty=0
[MON-WR] t=293000 scenario=fill_burst wr_en=1 wdata=d0 full=0 empty=0
[SCB-WR] PASS t=293000 scenario=fill_burst push=d0 depth=9
[MON-WR] t=301000 scenario=fill_burst wr_en=0 wdata=d0 full=0 empty=0
[MON-RD] t=302000 scenario=fill_burst rd_en=0 rdata=0 full=0 empty=0
[DRV] scenario=fill_burst wr_en=1 rd_en=0 wdata=d0 @308000
[MON-WR] t=309000 scenario=fill_burst wr_en=0 wdata=d0 full=0 empty=0
[MON-RD] t=316000 scenario=fill_burst rd_en=0 rdata=0 full=0 empty=0
[MON-WR] t=317000 scenario=fill_burst wr_en=1 wdata=3d full=0 empty=0
[SCB-WR] PASS t=317000 scenario=fill_burst push=3d depth=10
[MON-WR] t=325000 scenario=fill_burst wr_en=0 wdata=3d full=0 empty=0
[MON-RD] t=330000 scenario=fill_burst rd_en=0 rdata=0 full=0 empty=0
[MON-WR] t=333000 scenario=fill_burst wr_en=0 wdata=3d full=0 empty=0
[DRV] scenario=fill_burst wr_en=1 rd_en=0 wdata=3d @336000
[MON-WR] t=341000 scenario=fill_burst wr_en=0 wdata=3d full=0 empty=0
[MON-RD] t=344000 scenario=fill_burst rd_en=0 rdata=0 full=0 empty=0
[MON-WR] t=349000 scenario=fill_burst wr_en=1 wdata=65 full=0 empty=0
[SCB-WR] PASS t=349000 scenario=fill_burst push=65 depth=11
[MON-WR] t=357000 scenario=fill_burst wr_en=0 wdata=65 full=0 empty=0
[MON-RD] t=358000 scenario=fill_burst rd_en=0 rdata=0 full=0 empty=0
[DRV] scenario=fill_burst wr_en=1 rd_en=0 wdata=65 @364000
[MON-WR] t=365000 scenario=fill_burst wr_en=0 wdata=65 full=0 empty=0
[MON-RD] t=372000 scenario=fill_burst rd_en=0 rdata=0 full=0 empty=0
[MON-WR] t=373000 scenario=fill_burst wr_en=1 wdata=c3 full=0 empty=0
[SCB-WR] PASS t=373000 scenario=fill_burst push=c3 depth=12
[MON-WR] t=381000 scenario=fill_burst wr_en=0 wdata=c3 full=0 empty=0
[MON-RD] t=386000 scenario=fill_burst rd_en=1 rdata=64 full=0 empty=0
[SCB-RD] PASS t=386000 scenario=fill_burst exp=64 got=64 depth_after=11
[MON-WR] t=389000 scenario=fill_burst wr_en=0 wdata=c3 full=0 empty=0
[DRV] scenario=fill_burst wr_en=1 rd_en=1 wdata=c3 @392000
[MON-WR] t=397000 scenario=fill_burst wr_en=0 wdata=c3 full=0 empty=0
[MON-RD] t=400000 scenario=fill_burst rd_en=0 rdata=64 full=0 empty=0
[MON-WR] t=405000 scenario=fill_burst wr_en=1 wdata=aa full=0 empty=0
[SCB-WR] PASS t=405000 scenario=fill_burst push=aa depth=12
[MON-WR] t=413000 scenario=fill_burst wr_en=0 wdata=aa full=0 empty=0
[MON-RD] t=414000 scenario=fill_burst rd_en=0 rdata=64 full=0 empty=0
[DRV] scenario=fill_burst wr_en=1 rd_en=0 wdata=aa @420000
[MON-WR] t=421000 scenario=fill_burst wr_en=0 wdata=aa full=0 empty=0
[MON-RD] t=428000 scenario=fill_burst rd_en=0 rdata=64 full=0 empty=0
[MON-WR] t=429000 scenario=fill_burst wr_en=1 wdata=e4 full=0 empty=0
[SCB-WR] PASS t=429000 scenario=fill_burst push=e4 depth=13
[MON-WR] t=437000 scenario=fill_burst wr_en=0 wdata=e4 full=0 empty=0
[MON-RD] t=442000 scenario=fill_burst rd_en=0 rdata=64 full=0 empty=0
[MON-WR] t=445000 scenario=fill_burst wr_en=0 wdata=e4 full=0 empty=0
[DRV] scenario=fill_burst wr_en=1 rd_en=0 wdata=e4 @448000
[MON-WR] t=453000 scenario=fill_burst wr_en=0 wdata=e4 full=0 empty=0
[MON-RD] t=456000 scenario=fill_burst rd_en=0 rdata=64 full=0 empty=0
[MON-WR] t=461000 scenario=fill_burst wr_en=1 wdata=6a full=0 empty=0
[SCB-WR] PASS t=461000 scenario=fill_burst push=6a depth=14
[MON-WR] t=469000 scenario=fill_burst wr_en=0 wdata=6a full=0 empty=0
[MON-RD] t=470000 scenario=fill_burst rd_en=0 rdata=64 full=0 empty=0
[DRV] scenario=fill_burst wr_en=1 rd_en=0 wdata=6a @476000
[MON-WR] t=477000 scenario=fill_burst wr_en=0 wdata=6a full=0 empty=0
[MON-RD] t=484000 scenario=fill_burst rd_en=0 rdata=64 full=0 empty=0
[MON-WR] t=485000 scenario=fill_burst wr_en=1 wdata=3a full=0 empty=0
[SCB-WR] PASS t=485000 scenario=fill_burst push=3a depth=15
[MON-WR] t=493000 scenario=fill_burst wr_en=0 wdata=3a full=0 empty=0
[MON-RD] t=498000 scenario=fill_burst rd_en=0 rdata=64 full=0 empty=0
[MON-WR] t=501000 scenario=fill_burst wr_en=0 wdata=3a full=0 empty=0
[DRV] scenario=fill_burst wr_en=1 rd_en=0 wdata=3a @504000
[MON-WR] t=509000 scenario=fill_burst wr_en=0 wdata=3a full=0 empty=0
[MON-RD] t=512000 scenario=fill_burst rd_en=0 rdata=64 full=0 empty=0
[MON-WR] t=517000 scenario=fill_burst wr_en=1 wdata=6e full=1 empty=0
[SCB-WR] PASS t=517000 scenario=fill_burst push=6e depth=16
[MON-WR] t=525000 scenario=fill_burst wr_en=0 wdata=6e full=1 empty=0
[MON-RD] t=526000 scenario=fill_burst rd_en=0 rdata=64 full=1 empty=0
[DRV] scenario=fill_burst wr_en=1 rd_en=0 wdata=6e @532000
[MON-WR] t=533000 scenario=fill_burst wr_en=0 wdata=6e full=1 empty=0
[MON-RD] t=540000 scenario=fill_burst rd_en=0 rdata=64 full=1 empty=0
[MON-WR] t=541000 scenario=fill_burst wr_en=1 wdata=58 full=1 empty=0
[SCB-WR] BLOCK t=541000 scenario=fill_burst full_pre=1 depth=16
[MON-WR] t=549000 scenario=fill_burst wr_en=0 wdata=58 full=1 empty=0
[MON-RD] t=554000 scenario=fill_burst rd_en=0 rdata=64 full=1 empty=0
[MON-WR] t=557000 scenario=fill_burst wr_en=0 wdata=58 full=1 empty=0
[DRV] scenario=fill_burst wr_en=1 rd_en=0 wdata=58 @560000
[MON-WR] t=565000 scenario=fill_burst wr_en=0 wdata=58 full=1 empty=0
[MON-RD] t=568000 scenario=fill_burst rd_en=0 rdata=64 full=1 empty=0
[MON-WR] t=573000 scenario=fill_burst wr_en=1 wdata=cb full=1 empty=0
[SCB-WR] BLOCK t=573000 scenario=fill_burst full_pre=1 depth=16
[MON-WR] t=581000 scenario=fill_burst wr_en=0 wdata=cb full=1 empty=0
[MON-RD] t=582000 scenario=fill_burst rd_en=0 rdata=64 full=1 empty=0
[DRV] scenario=fill_burst wr_en=1 rd_en=0 wdata=cb @588000
[MON-WR] t=589000 scenario=fill_burst wr_en=0 wdata=cb full=1 empty=0
[MON-RD] t=596000 scenario=fill_burst rd_en=0 rdata=64 full=1 empty=0
[MON-WR] t=597000 scenario=fill_burst wr_en=1 wdata=18 full=1 empty=0
[SCB-WR] BLOCK t=597000 scenario=fill_burst full_pre=1 depth=16
[MON-WR] t=605000 scenario=fill_burst wr_en=0 wdata=18 full=1 empty=0
[MON-RD] t=610000 scenario=fill_burst rd_en=0 rdata=64 full=1 empty=0
[MON-WR] t=613000 scenario=fill_burst wr_en=0 wdata=18 full=1 empty=0
[DRV] scenario=fill_burst wr_en=1 rd_en=0 wdata=18 @616000
[MON-WR] t=621000 scenario=fill_burst wr_en=0 wdata=18 full=1 empty=0
[MON-RD] t=624000 scenario=fill_burst rd_en=0 rdata=64 full=1 empty=0
[MON-WR] t=629000 scenario=fill_burst wr_en=1 wdata=fe full=1 empty=0
[SCB-WR] BLOCK t=629000 scenario=fill_burst full_pre=1 depth=16
[MON-WR] t=637000 scenario=fill_burst wr_en=0 wdata=fe full=1 empty=0
[MON-RD] t=638000 scenario=fill_burst rd_en=0 rdata=64 full=1 empty=0
[DRV] scenario=fill_burst wr_en=1 rd_en=0 wdata=fe @644000
[MON-WR] t=645000 scenario=fill_burst wr_en=0 wdata=fe full=1 empty=0
[MON-RD] t=652000 scenario=fill_burst rd_en=0 rdata=64 full=1 empty=0
[MON-WR] t=653000 scenario=fill_burst wr_en=1 wdata=2b full=1 empty=0
[SCB-WR] BLOCK t=653000 scenario=fill_burst full_pre=1 depth=16
[MON-WR] t=661000 scenario=fill_burst wr_en=0 wdata=2b full=1 empty=0
[MON-RD] t=666000 scenario=fill_burst rd_en=0 rdata=64 full=1 empty=0
[MON-WR] t=669000 scenario=fill_burst wr_en=0 wdata=2b full=1 empty=0
[DRV] scenario=fill_burst wr_en=1 rd_en=0 wdata=2b @672000
[MON-WR] t=677000 scenario=fill_burst wr_en=0 wdata=2b full=1 empty=0
[MON-RD] t=680000 scenario=fill_burst rd_en=0 rdata=64 full=1 empty=0
[MON-WR] t=685000 scenario=fill_burst wr_en=1 wdata=5c full=1 empty=0
[SCB-WR] BLOCK t=685000 scenario=fill_burst full_pre=1 depth=16
[MON-WR] t=693000 scenario=fill_burst wr_en=0 wdata=5c full=1 empty=0
[MON-RD] t=694000 scenario=fill_burst rd_en=1 rdata=f1 full=1 empty=0
[SCB-RD] PASS t=694000 scenario=fill_burst exp=f1 got=f1 depth_after=15
[DRV] scenario=fill_burst wr_en=1 rd_en=1 wdata=5c @700000
[MON-WR] t=701000 scenario=fill_burst wr_en=0 wdata=5c full=1 empty=0
[MON-RD] t=708000 scenario=fill_burst rd_en=0 rdata=f1 full=1 empty=0
[MON-WR] t=709000 scenario=fill_burst wr_en=1 wdata=4e full=1 empty=0
[SCB-WR] BLOCK t=709000 scenario=fill_burst full_pre=1 depth=15
[MON-WR] t=717000 scenario=fill_burst wr_en=0 wdata=4e full=0 empty=0
[MON-RD] t=722000 scenario=fill_burst rd_en=0 rdata=f1 full=0 empty=0
[MON-WR] t=725000 scenario=fill_burst wr_en=0 wdata=4e full=0 empty=0
[DRV] scenario=fill_burst wr_en=1 rd_en=0 wdata=4e @728000
[MON-WR] t=733000 scenario=fill_burst wr_en=0 wdata=4e full=0 empty=0
[MON-RD] t=736000 scenario=fill_burst rd_en=0 rdata=f1 full=0 empty=0
[MON-WR] t=741000 scenario=fill_burst wr_en=1 wdata=8e full=1 empty=0
[SCB-WR] PASS t=741000 scenario=fill_burst push=8e depth=16
[MON-WR] t=749000 scenario=fill_burst wr_en=0 wdata=8e full=1 empty=0
[MON-RD] t=750000 scenario=fill_burst rd_en=0 rdata=f1 full=1 empty=0
[DRV] scenario=fill_burst wr_en=1 rd_en=0 wdata=8e @756000
[MON-WR] t=757000 scenario=fill_burst wr_en=0 wdata=8e full=1 empty=0
[MON-RD] t=764000 scenario=fill_burst rd_en=0 rdata=f1 full=1 empty=0
[MON-WR] t=765000 scenario=fill_burst wr_en=1 wdata=15 full=1 empty=0
[SCB-WR] BLOCK t=765000 scenario=fill_burst full_pre=1 depth=16
[MON-WR] t=773000 scenario=fill_burst wr_en=0 wdata=15 full=1 empty=0
[MON-RD] t=778000 scenario=fill_burst rd_en=0 rdata=f1 full=1 empty=0
[MON-WR] t=781000 scenario=fill_burst wr_en=0 wdata=15 full=1 empty=0
[DRV] scenario=fill_burst wr_en=1 rd_en=0 wdata=15 @784000
[MON-WR] t=789000 scenario=fill_burst wr_en=0 wdata=15 full=1 empty=0
[MON-RD] t=792000 scenario=fill_burst rd_en=0 rdata=f1 full=1 empty=0
[MON-WR] t=797000 scenario=fill_burst wr_en=1 wdata=8 full=1 empty=0
[SCB-WR] BLOCK t=797000 scenario=fill_burst full_pre=1 depth=16
[MON-WR] t=805000 scenario=fill_burst wr_en=0 wdata=8 full=1 empty=0
[MON-RD] t=806000 scenario=fill_burst rd_en=0 rdata=f1 full=1 empty=0
[DRV] scenario=fill_burst wr_en=1 rd_en=0 wdata=8 @812000
[MON-WR] t=813000 scenario=fill_burst wr_en=0 wdata=8 full=1 empty=0
[MON-RD] t=820000 scenario=fill_burst rd_en=0 rdata=f1 full=1 empty=0
[MON-WR] t=821000 scenario=fill_burst wr_en=1 wdata=35 full=1 empty=0
[SCB-WR] BLOCK t=821000 scenario=fill_burst full_pre=1 depth=16
[MON-WR] t=829000 scenario=fill_burst wr_en=0 wdata=35 full=1 empty=0
[MON-RD] t=834000 scenario=fill_burst rd_en=0 rdata=f1 full=1 empty=0
[MON-WR] t=837000 scenario=fill_burst wr_en=0 wdata=35 full=1 empty=0
[DRV] scenario=fill_burst wr_en=1 rd_en=0 wdata=35 @840000
[MON-WR] t=845000 scenario=fill_burst wr_en=0 wdata=35 full=1 empty=0
[MON-RD] t=848000 scenario=fill_burst rd_en=0 rdata=f1 full=1 empty=0
[MON-WR] t=853000 scenario=fill_burst wr_en=1 wdata=4 full=1 empty=0
[SCB-WR] BLOCK t=853000 scenario=fill_burst full_pre=1 depth=16
[MON-WR] t=861000 scenario=fill_burst wr_en=0 wdata=4 full=1 empty=0
[MON-RD] t=862000 scenario=fill_burst rd_en=0 rdata=f1 full=1 empty=0
[DRV] scenario=fill_burst wr_en=1 rd_en=0 wdata=4 @868000
[MON-WR] t=869000 scenario=fill_burst wr_en=0 wdata=4 full=1 empty=0
[MON-RD] t=876000 scenario=fill_burst rd_en=0 rdata=f1 full=1 empty=0
[MON-WR] t=877000 scenario=fill_burst wr_en=1 wdata=4b full=1 empty=0
[SCB-WR] BLOCK t=877000 scenario=fill_burst full_pre=1 depth=16
[MON-WR] t=885000 scenario=fill_burst wr_en=0 wdata=4b full=1 empty=0
[MON-RD] t=890000 scenario=fill_burst rd_en=0 rdata=f1 full=1 empty=0
[MON-WR] t=893000 scenario=fill_burst wr_en=0 wdata=4b full=1 empty=0
[DRV] scenario=fill_burst wr_en=1 rd_en=0 wdata=4b @896000
[MON-WR] t=901000 scenario=fill_burst wr_en=0 wdata=4b full=1 empty=0
[MON-RD] t=904000 scenario=fill_burst rd_en=0 rdata=f1 full=1 empty=0
[MON-WR] t=909000 scenario=fill_burst wr_en=1 wdata=4f full=1 empty=0
[SCB-WR] BLOCK t=909000 scenario=fill_burst full_pre=1 depth=16
[MON-WR] t=917000 scenario=fill_burst wr_en=0 wdata=4f full=1 empty=0
[MON-RD] t=918000 scenario=fill_burst rd_en=0 rdata=f1 full=1 empty=0
