SystemVerilogProject/SV_Verification/evidence/logs/sync_fifo_vivado.log
#-----------------------------------------------------------
# Vivado v2020.2 (64-bit)
# SW Build 3064766 on Wed Nov 18 09:12:45 MST 2020
# IP Build 3064653 on Wed Nov 18 14:17:31 MST 2020
# Start of session at: Thu Mar 19 12:52:57 2026
# Process ID: 6468
# Current directory: D:/02_learning_lab/fpga/portfoloio_uvm1
# Command line: vivado.exe -mode batch -source D:/02_learning_lab/fpga/portfoloio_uvm1/FPGA_Auto_Project/templates/contexts/simulation/adapters/tcl/sim_run_vivado_nogui.tcl -log D:/02_learning_lab/fpga/portfoloio_uvm1/FPGA_Auto_Project/Project/veri1/tb/sync_fifo/vivado_sim_tb_sync_fifo.log -journal D:/02_learning_lab/fpga/portfoloio_uvm1/FPGA_Auto_Project/Project/veri1/tb/sync_fifo/vivado_sim_tb_sync_fifo.jou -notrace -tclargs D:/02_learning_lab/fpga/portfoloio_uvm1/FPGA_Auto_Project/Project/veri1 tb_sync_fifo D:/02_learning_lab/fpga/portfoloio_uvm1/FPGA_Auto_Project/Project/veri1/vivado_project D:/02_learning_lab/fpga/portfoloio_uvm1/FPGA_Auto_Project/Project/veri1/output/manifest/manifest_src_files.lst D:/02_learning_lab/fpga/portfoloio_uvm1/FPGA_Auto_Project/Project/veri1/output/manifest/manifest_tb_files.lst D:/02_learning_lab/fpga/portfoloio_uvm1/FPGA_Auto_Project/Project/veri1/output/manifest/manifest_inc_dirs.lst D:/02_learning_lab/fpga/portfoloio_uvm1/FPGA_Auto_Project/Project/veri1/tb/sync_fifo/tb_sync_fifo.sv -testplusarg TESTNAME=all -testplusarg CSV_SUMMARY=D:/02_learning_lab/fpga/portfoloio_uvm1/FPGA_Auto_Project/Project/veri1/output/analytics/tb_csv/sync_fifo_summary.csv -testplusarg CSV_SCENARIO=D:/02_learning_lab/fpga/portfoloio_uvm1/FPGA_Auto_Project/Project/veri1/output/analytics/tb_csv/sync_fifo_scenarios.csv -testplusarg CSV_TRACE=D:/02_learning_lab/fpga/portfoloio_uvm1/FPGA_Auto_Project/Project/veri1/output/analytics/tb_csv/sync_fifo_trace.csv
# Log file: D:/02_learning_lab/fpga/portfoloio_uvm1/FPGA_Auto_Project/Project/veri1/tb/sync_fifo/vivado_sim_tb_sync_fifo.log
# Journal file: D:/02_learning_lab/fpga/portfoloio_uvm1/FPGA_Auto_Project/Project/veri1/tb/sync_fifo/vivado_sim_tb_sync_fifo.jou
#-----------------------------------------------------------
source D:/02_learning_lab/fpga/portfoloio_uvm1/FPGA_Auto_Project/templates/contexts/simulation/adapters/tcl/sim_run_vivado_nogui.tcl -notrace
[INFO] Loading build config: D:/02_learning_lab/fpga/portfoloio_uvm1/FPGA_Auto_Project/templates/contexts/vivado/domain/project_build_config.tcl
[INFO] Applying TB scope filter by selected file folder: D:/02_learning_lab/fpga/portfoloio_uvm1/FPGA_Auto_Project/Project/Veri1/tb/sync_fifo
[INFO] Creating Vivado project: sim_nogui_tb_sync_fifo
[INFO] Project directory: D:/02_learning_lab/fpga/portfoloio_uvm1/FPGA_Auto_Project/Project/Veri1/vivado_project/project/sim_nogui_tb_sync_fifo
INFO: [ProjectBase 1-489] The host OS only allows 260 characters in a normal path. The project is stored in a path with more than 80 characters. If you experience issues with IP, Block Designs, or files not being found, please consider moving the project to a location with a shorter path. Alternately consider using the OS subst command to map part of the path to a drive letter.
Current project path is 'D:/02_learning_lab/fpga/portfoloio_uvm1/FPGA_Auto_Project/Project/Veri1/vivado_project/project/sim_nogui_tb_sync_fifo'
[INFO] Adding source files: 6
[INFO] Adding testbench files: 3
[INFO] Setting include dirs: 1
[INFO] Setting simulation top: tb_sync_fifo
[INFO] Setting xsim.more_options: -testplusarg TESTNAME=all -testplusarg CSV_SUMMARY=D:/02_learning_lab/fpga/portfoloio_uvm1/FPGA_Auto_Project/Project/veri1/output/analytics/tb_csv/sync_fifo_summary.csv -testplusarg CSV_SCENARIO=D:/02_learning_lab/fpga/portfoloio_uvm1/FPGA_Auto_Project/Project/veri1/output/analytics/tb_csv/sync_fifo_scenarios.csv -testplusarg CSV_TRACE=D:/02_learning_lab/fpga/portfoloio_uvm1/FPGA_Auto_Project/Project/veri1/output/analytics/tb_csv/sync_fifo_trace.csv
[INFO] Initial launch runtime set to 0ns (auto replay mode)
[INFO] Launching simulation in batch mode...
Command: launch_simulation 
INFO: [Vivado 12-5682] Launching behavioral simulation in 'D:/02_learning_lab/fpga/portfoloio_uvm1/FPGA_Auto_Project/Project/Veri1/vivado_project/project/sim_nogui_tb_sync_fifo/sim_nogui_tb_sync_fifo.sim/sim_1/behav/xsim'
INFO: [SIM-utils-51] Simulation object is 'sim_1'
INFO: [SIM-utils-54] Inspecting design source files for 'tb_sync_fifo' in fileset 'sim_1'...
INFO: [USF-XSim-97] Finding global include files...
INFO: [USF-XSim-98] Fetching design files from 'sim_1'...
INFO: [USF-XSim-2] XSim::Compile design
INFO: [USF-XSim-61] Executing 'COMPILE and ANALYZE' step in 'D:/02_learning_lab/fpga/portfoloio_uvm1/FPGA_Auto_Project/Project/Veri1/vivado_project/project/sim_nogui_tb_sync_fifo/sim_nogui_tb_sync_fifo.sim/sim_1/behav/xsim'
"xvlog --incr --relax -L uvm -prj tb_sync_fifo_vlog.prj"
INFO: [VRFC 10-2263] Analyzing SystemVerilog file "D:/02_learning_lab/fpga/portfoloio_uvm1/FPGA_Auto_Project/Project/Veri1/src/sync_fifo.sv" into library xil_defaultlib
INFO: [VRFC 10-311] analyzing module sync_fifo
INFO: [VRFC 10-2263] Analyzing SystemVerilog file "D:/02_learning_lab/fpga/portfoloio_uvm1/FPGA_Auto_Project/Project/Veri1/tb/sync_fifo/sync_fifo_if.sv" into library xil_defaultlib
INFO: [VRFC 10-2263] Analyzing SystemVerilog file "D:/02_learning_lab/fpga/portfoloio_uvm1/FPGA_Auto_Project/Project/Veri1/tb/sync_fifo/sync_fifo_tb_pkg.sv" into library xil_defaultlib
INFO: [VRFC 10-2263] Analyzing SystemVerilog file "D:/02_learning_lab/fpga/portfoloio_uvm1/FPGA_Auto_Project/Project/Veri1/tb/sync_fifo/tb_sync_fifo.sv" into library xil_defaultlib
INFO: [VRFC 10-311] analyzing module tb_sync_fifo
INFO: [VRFC 10-2263] Analyzing Verilog file "D:/02_learning_lab/fpga/portfoloio_uvm1/FPGA_Auto_Project/Project/Veri1/vivado_project/project/sim_nogui_tb_sync_fifo/sim_nogui_tb_sync_fifo.sim/sim_1/behav/xsim/glbl.v" into library xil_defaultlib
INFO: [VRFC 10-311] analyzing module glbl
INFO: [USF-XSim-69] 'compile' step finished in '1' seconds
INFO: [USF-XSim-3] XSim::Elaborate design
INFO: [USF-XSim-61] Executing 'ELABORATE' step in 'D:/02_learning_lab/fpga/portfoloio_uvm1/FPGA_Auto_Project/Project/Veri1/vivado_project/project/sim_nogui_tb_sync_fifo/sim_nogui_tb_sync_fifo.sim/sim_1/behav/xsim'
"xelab -wto de945e17892d4005a350cf58f3d51317 --incr --debug typical --relax --mt 2 -L xil_defaultlib -L uvm -L unisims_ver -L unimacro_ver -L secureip --snapshot tb_sync_fifo_behav xil_defaultlib.tb_sync_fifo xil_defaultlib.glbl -log elaborate.log"
Vivado Simulator 2020.2
Copyright 1986-1999, 2001-2020 Xilinx, Inc. All Rights Reserved.
Running: C:/Xilinx/Vivado/2020.2/bin/unwrapped/win64.o/xelab.exe -wto de945e17892d4005a350cf58f3d51317 --incr --debug typical --relax --mt 2 -L xil_defaultlib -L uvm -L unisims_ver -L unimacro_ver -L secureip --snapshot tb_sync_fifo_behav xil_defaultlib.tb_sync_fifo xil_defaultlib.glbl -log elaborate.log 
Using 2 slave threads.
Starting static elaboration
Pass Through NonSizing Optimizer
Completed static elaboration
Starting simulation data flow analysis
Completed simulation data flow analysis
Time Resolution for simulation is 1ps
Compiling package xil_defaultlib.sync_fifo_tb_pkg
Compiling package std.std
Compiling module xil_defaultlib.sync_fifo_if
Compiling module xil_defaultlib.sync_fifo_default
Compiling module xil_defaultlib.tb_sync_fifo
Compiling module xil_defaultlib.glbl
Built simulation snapshot tb_sync_fifo_behav

****** Webtalk v2020.2 (64-bit)
  **** SW Build 3064766 on Wed Nov 18 09:12:45 MST 2020
  **** IP Build 3064653 on Wed Nov 18 14:17:31 MST 2020
    ** Copyright 1986-2020 Xilinx, Inc. All Rights Reserved.

source D:/02_learning_lab/fpga/portfoloio_uvm1/FPGA_Auto_Project/Project/Veri1/vivado_project/project/sim_nogui_tb_sync_fifo/sim_nogui_tb_sync_fifo.sim/sim_1/behav/xsim/xsim.dir/tb_sync_fifo_behav/webtalk/xsim_webtalk.tcl -notrace
INFO: [Common 17-206] Exiting Webtalk at Thu Mar 19 12:53:12 2026...
INFO: [USF-XSim-69] 'elaborate' step finished in '4' seconds
INFO: [USF-XSim-4] XSim::Simulate design
INFO: [USF-XSim-61] Executing 'SIMULATE' step in 'D:/02_learning_lab/fpga/portfoloio_uvm1/FPGA_Auto_Project/Project/Veri1/vivado_project/project/sim_nogui_tb_sync_fifo/sim_nogui_tb_sync_fifo.sim/sim_1/behav/xsim'
INFO: [USF-XSim-98] *** Running xsim
   with args "tb_sync_fifo_behav -key {Behavioral:sim_1:Functional:tb_sync_fifo} -tclbatch {tb_sync_fifo.tcl} -log {simulate.log} -testplusarg TESTNAME=all -testplusarg CSV_SUMMARY=D:/02_learning_lab/fpga/portfoloio_uvm1/FPGA_Auto_Project/Project/veri1/output/analytics/tb_csv/sync_fifo_summary.csv -testplusarg CSV_SCENARIO=D:/02_learning_lab/fpga/portfoloio_uvm1/FPGA_Auto_Project/Project/veri1/output/analytics/tb_csv/sync_fifo_scenarios.csv -testplusarg CSV_TRACE=D:/02_learning_lab/fpga/portfoloio_uvm1/FPGA_Auto_Project/Project/veri1/output/analytics/tb_csv/sync_fifo_trace.csv"
INFO: [USF-XSim-8] Loading simulator feature
Vivado Simulator 2020.2
Time resolution is 1 ps
source tb_sync_fifo.tcl
WARNING: Simulation object /tb_sync_fifo/env was not traceable in the design for the following reason:
Vivado Simulator does not support tracing of System Verilog Dynamic Type object.
[TB] Starting sync FIFO verification (UVM-inspired custom environment)
INFO: [USF-XSim-96] XSim completed. Design snapshot 'tb_sync_fifo_behav' loaded.
INFO: [USF-XSim-97] XSim simulation ran for 0ns
launch_simulation: Time (s): cpu = 00:00:00 ; elapsed = 00:00:06 . Memory (MB): peak = 1108.078 ; gain = 0.000
[INFO] Auto replay: restart + run all
INFO: [Simtcl 6-17] Simulation restarted
[TB] Starting sync FIFO verification (UVM-inspired custom environment)
[DRV] reset released
[GEN][PHASE] iter=0 scenario=fill_burst
[DRV] t=30000 scenario=fill_burst wr=1 rd=1 wdata=b2
[MON] t=36000 scenario=fill_burst wr=1 rd=1 wdata=b2 rdata=0 full=0 empty=0
[SCB] BLOCK-RD t=36000 scenario=fill_burst pre_count=0
[DRV] t=40000 scenario=fill_burst wr=1 rd=0 wdata=37
[MON] t=46000 scenario=fill_burst wr=1 rd=0 wdata=37 rdata=0 full=0 empty=0
[DRV] t=50000 scenario=fill_burst wr=1 rd=0 wdata=cd
[MON] t=56000 scenario=fill_burst wr=1 rd=0 wdata=cd rdata=0 full=0 empty=0
[DRV] t=60000 scenario=fill_burst wr=1 rd=0 wdata=b7
[MON] t=66000 scenario=fill_burst wr=1 rd=0 wdata=b7 rdata=0 full=0 empty=0
[DRV] t=70000 scenario=fill_burst wr=1 rd=0 wdata=e7
[MON] t=76000 scenario=fill_burst wr=1 rd=0 wdata=e7 rdata=0 full=0 empty=0
[DRV] t=80000 scenario=fill_burst wr=1 rd=0 wdata=be
[MON] t=86000 scenario=fill_burst wr=1 rd=0 wdata=be rdata=0 full=0 empty=0
[DRV] t=90000 scenario=fill_burst wr=1 rd=0 wdata=a3
[MON] t=96000 scenario=fill_burst wr=1 rd=0 wdata=a3 rdata=0 full=0 empty=0
[DRV] t=100000 scenario=fill_burst wr=1 rd=0 wdata=96
[MON] t=106000 scenario=fill_burst wr=1 rd=0 wdata=96 rdata=0 full=0 empty=0
[DRV] t=110000 scenario=fill_burst wr=1 rd=0 wdata=51
[MON] t=116000 scenario=fill_burst wr=1 rd=0 wdata=51 rdata=0 full=0 empty=0
[DRV] t=120000 scenario=fill_burst wr=1 rd=1 wdata=9b
[MON] t=126000 scenario=fill_burst wr=1 rd=1 wdata=9b rdata=b2 full=0 empty=0
[SCB] PASS-RD t=126000 scenario=fill_burst exp=b2 got=b2
[DRV] t=130000 scenario=fill_burst wr=1 rd=0 wdata=f2
[MON] t=136000 scenario=fill_burst wr=1 rd=0 wdata=f2 rdata=b2 full=0 empty=0
[DRV] t=140000 scenario=fill_burst wr=1 rd=0 wdata=26
[MON] t=146000 scenario=fill_burst wr=1 rd=0 wdata=26 rdata=b2 full=0 empty=0
[DRV] t=150000 scenario=fill_burst wr=1 rd=0 wdata=a4
[MON] t=156000 scenario=fill_burst wr=1 rd=0 wdata=a4 rdata=b2 full=0 empty=0
[DRV] t=160000 scenario=fill_burst wr=1 rd=0 wdata=df
[MON] t=166000 scenario=fill_burst wr=1 rd=0 wdata=df rdata=b2 full=0 empty=0
[DRV] t=170000 scenario=fill_burst wr=1 rd=1 wdata=91
[MON] t=176000 scenario=fill_burst wr=1 rd=1 wdata=91 rdata=37 full=0 empty=0
[SCB] PASS-RD t=176000 scenario=fill_burst exp=37 got=37
[DRV] t=180000 scenario=fill_burst wr=1 rd=1 wdata=6a
[MON] t=186000 scenario=fill_burst wr=1 rd=1 wdata=6a rdata=cd full=0 empty=0
[SCB] PASS-RD t=186000 scenario=fill_burst exp=cd got=cd
[DRV] t=190000 scenario=fill_burst wr=1 rd=0 wdata=a0
[MON] t=196000 scenario=fill_burst wr=1 rd=0 wdata=a0 rdata=cd full=0 empty=0
[DRV] t=200000 scenario=fill_burst wr=1 rd=0 wdata=de
[MON] t=206000 scenario=fill_burst wr=1 rd=0 wdata=de rdata=cd full=0 empty=0
[DRV] t=210000 scenario=fill_burst wr=1 rd=1 wdata=25
[MON] t=216000 scenario=fill_burst wr=1 rd=1 wdata=25 rdata=b7 full=0 empty=0
[SCB] PASS-RD t=216000 scenario=fill_burst exp=b7 got=b7
[DRV] t=220000 scenario=fill_burst wr=1 rd=0 wdata=ca
[MON] t=226000 scenario=fill_burst wr=1 rd=0 wdata=ca rdata=b7 full=1 empty=0
[DRV] t=230000 scenario=fill_burst wr=1 rd=0 wdata=66
[MON] t=236000 scenario=fill_burst wr=1 rd=0 wdata=66 rdata=b7 full=1 empty=0
[SCB] BLOCK-WR t=236000 scenario=fill_burst pre_count=16
[DRV] t=240000 scenario=fill_burst wr=1 rd=1 wdata=2e
[MON] t=246000 scenario=fill_burst wr=1 rd=1 wdata=2e rdata=e7 full=1 empty=0
[SCB] PASS-RD t=246000 scenario=fill_burst exp=e7 got=e7
[DRV] t=250000 scenario=fill_burst wr=1 rd=0 wdata=34
[MON] t=256000 scenario=fill_burst wr=1 rd=0 wdata=34 rdata=e7 full=1 empty=0
[SCB] BLOCK-WR t=256000 scenario=fill_burst pre_count=16
[DRV] t=260000 scenario=fill_burst wr=1 rd=0 wdata=bc
[MON] t=266000 scenario=fill_burst wr=1 rd=0 wdata=bc rdata=e7 full=1 empty=0
[SCB] BLOCK-WR t=266000 scenario=fill_burst pre_count=16
[DRV] t=270000 scenario=fill_burst wr=1 rd=0 wdata=90
[MON] t=276000 scenario=fill_burst wr=1 rd=0 wdata=90 rdata=e7 full=1 empty=0
[SCB] BLOCK-WR t=276000 scenario=fill_burst pre_count=16
[DRV] t=280000 scenario=fill_burst wr=1 rd=0 wdata=5a
[MON] t=286000 scenario=fill_burst wr=1 rd=0 wdata=5a rdata=e7 full=1 empty=0
[SCB] BLOCK-WR t=286000 scenario=fill_burst pre_count=16
[DRV] t=290000 scenario=fill_burst wr=1 rd=0 wdata=8f
[MON] t=296000 scenario=fill_burst wr=1 rd=0 wdata=8f rdata=e7 full=1 empty=0
[SCB] BLOCK-WR t=296000 scenario=fill_burst pre_count=16
[DRV] t=300000 scenario=fill_burst wr=1 rd=1 wdata=78
[MON] t=306000 scenario=fill_burst wr=1 rd=1 wdata=78 rdata=be full=1 empty=0
[SCB] PASS-RD t=306000 scenario=fill_burst exp=be got=be
[DRV] t=310000 scenario=fill_burst wr=1 rd=0 wdata=cb
[MON] t=316000 scenario=fill_burst wr=1 rd=0 wdata=cb rdata=be full=1 empty=0
[SCB] BLOCK-WR t=316000 scenario=fill_burst pre_count=16
[DRV] t=320000 scenario=fill_burst wr=1 rd=0 wdata=fd
[MON] t=326000 scenario=fill_burst wr=1 rd=0 wdata=fd rdata=be full=1 empty=0
[SCB] BLOCK-WR t=326000 scenario=fill_burst pre_count=16
[DRV] t=330000 scenario=fill_burst wr=1 rd=0 wdata=ec
[MON] t=336000 scenario=fill_burst wr=1 rd=0 wdata=ec rdata=be full=1 empty=0
[SCB] BLOCK-WR t=336000 scenario=fill_burst pre_count=16
[DRV] t=340000 scenario=fill_burst wr=1 rd=0 wdata=cc
[MON] t=346000 scenario=fill_burst wr=1 rd=0 wdata=cc rdata=be full=1 empty=0
[SCB] BLOCK-WR t=346000 scenario=fill_burst pre_count=16
[DRV] t=350000 scenario=fill_burst wr=1 rd=0 wdata=a2
[MON] t=356000 scenario=fill_burst wr=1 rd=0 wdata=a2 rdata=be full=1 empty=0
[SCB] BLOCK-WR t=356000 scenario=fill_burst pre_count=16
[DRV] t=360000 scenario=fill_burst wr=1 rd=0 wdata=51
[MON] t=366000 scenario=fill_burst wr=1 rd=0 wdata=51 rdata=be full=1 empty=0
[SCB] BLOCK-WR t=366000 scenario=fill_burst pre_count=16
[DRV] t=370000 scenario=fill_burst wr=1 rd=0 wdata=59
[MON] t=376000 scenario=fill_burst wr=1 rd=0 wdata=59 rdata=be full=1 empty=0
[SCB] BLOCK-WR t=376000 scenario=fill_burst pre_count=16
[DRV] t=380000 scenario=fill_burst wr=1 rd=0 wdata=58
[MON] t=386000 scenario=fill_burst wr=1 rd=0 wdata=58 rdata=be full=1 empty=0
[SCB] BLOCK-WR t=386000 scenario=fill_burst pre_count=16
[DRV] t=390000 scenario=fill_burst wr=1 rd=1 wdata=7f
[MON] t=396000 scenario=fill_burst wr=1 rd=1 wdata=7f rdata=a3 full=1 empty=0
[SCB] PASS-RD t=396000 scenario=fill_burst exp=a3 got=a3
[DRV] t=400000 scenario=fill_burst wr=1 rd=0 wdata=a1
[MON] t=406000 scenario=fill_burst wr=1 rd=0 wdata=a1 rdata=a3 full=1 empty=0
[SCB] BLOCK-WR t=406000 scenario=fill_burst pre_count=16
[DRV] t=410000 scenario=fill_burst wr=1 rd=0 wdata=40
[MON] t=416000 scenario=fill_burst wr=1 rd=0 wdata=40 rdata=a3 full=1 empty=0
[SCB] BLOCK-WR t=416000 scenario=fill_burst pre_count=16
[DRV] t=420000 scenario=fill_burst wr=1 rd=0 wdata=9c
[MON] t=426000 scenario=fill_burst wr=1 rd=0 wdata=9c rdata=a3 full=1 empty=0
[SCB] BLOCK-WR t=426000 scenario=fill_burst pre_count=16
[DRV] t=430000 scenario=fill_burst wr=1 rd=0 wdata=1
[MON] t=436000 scenario=fill_burst wr=1 rd=0 wdata=1 rdata=a3 full=1 empty=0
[SCB] BLOCK-WR t=436000 scenario=fill_burst pre_count=16
[DRV] t=440000 scenario=fill_burst wr=1 rd=0 wdata=da
[MON] t=446000 scenario=fill_burst wr=1 rd=0 wdata=da rdata=a3 full=1 empty=0
[SCB] BLOCK-WR t=446000 scenario=fill_burst pre_count=16
[DRV] t=450000 scenario=fill_burst wr=1 rd=0 wdata=7d
[MON] t=456000 scenario=fill_burst wr=1 rd=0 wdata=7d rdata=a3 full=1 empty=0
[SCB] BLOCK-WR t=456000 scenario=fill_burst pre_count=16
[DRV] t=460000 scenario=fill_burst wr=1 rd=0 wdata=b5
[MON] t=466000 scenario=fill_burst wr=1 rd=0 wdata=b5 rdata=a3 full=1 empty=0
[SCB] BLOCK-WR t=466000 scenario=fill_burst pre_count=16
[DRV] t=470000 scenario=fill_burst wr=1 rd=0 wdata=45
[MON] t=476000 scenario=fill_burst wr=1 rd=0 wdata=45 rdata=a3 full=1 empty=0
[SCB] BLOCK-WR t=476000 scenario=fill_burst pre_count=16
[DRV] t=480000 scenario=fill_burst wr=1 rd=1 wdata=a7
[MON] t=486000 scenario=fill_burst wr=1 rd=1 wdata=a7 rdata=96 full=1 empty=0
[SCB] PASS-RD t=486000 scenario=fill_burst exp=96 got=96
[DRV] t=490000 scenario=fill_burst wr=1 rd=0 wdata=6f
[MON] t=496000 scenario=fill_burst wr=1 rd=0 wdata=6f rdata=96 full=1 empty=0
[SCB] BLOCK-WR t=496000 scenario=fill_burst pre_count=16
[DRV] t=500000 scenario=fill_burst wr=1 rd=0 wdata=9e
[MON] t=506000 scenario=fill_burst wr=1 rd=0 wdata=9e rdata=96 full=1 empty=0
[SCB] BLOCK-WR t=506000 scenario=fill_burst pre_count=16
[DRV] t=510000 scenario=fill_burst wr=1 rd=0 wdata=ca
[MON] t=516000 scenario=fill_burst wr=1 rd=0 wdata=ca rdata=96 full=1 empty=0
[SCB] BLOCK-WR t=516000 scenario=fill_burst pre_count=16
[DRV] t=520000 scenario=fill_burst wr=1 rd=0 wdata=fc
[MON] t=526000 scenario=fill_burst wr=1 rd=0 wdata=fc rdata=96 full=1 empty=0
[SCB] BLOCK-WR t=526000 scenario=fill_burst pre_count=16
[DRV] t=530000 scenario=fill_burst wr=1 rd=0 wdata=b1
[MON] t=536000 scenario=fill_burst wr=1 rd=0 wdata=b1 rdata=96 full=1 empty=0
[SCB] BLOCK-WR t=536000 scenario=fill_burst pre_count=16
[DRV] t=540000 scenario=fill_burst wr=1 rd=0 wdata=31
[MON] t=546000 scenario=fill_burst wr=1 rd=0 wdata=31 rdata=96 full=1 empty=0
[SCB] BLOCK-WR t=546000 scenario=fill_burst pre_count=16
[DRV] t=550000 scenario=fill_burst wr=1 rd=0 wdata=10
[MON] t=556000 scenario=fill_burst wr=1 rd=0 wdata=10 rdata=96 full=1 empty=0
[SCB] BLOCK-WR t=556000 scenario=fill_burst pre_count=16
[DRV] t=560000 scenario=fill_burst wr=1 rd=0 wdata=55
[MON] t=566000 scenario=fill_burst wr=1 rd=0 wdata=55 rdata=96 full=1 empty=0
[SCB] BLOCK-WR t=566000 scenario=fill_burst pre_count=16
[DRV] t=570000 scenario=fill_burst wr=1 rd=1 wdata=ca
[MON] t=576000 scenario=fill_burst wr=1 rd=1 wdata=ca rdata=51 full=1 empty=0
[SCB] PASS-RD t=576000 scenario=fill_burst exp=51 got=51
[DRV] t=580000 scenario=fill_burst wr=1 rd=0 wdata=aa
[MON] t=586000 scenario=fill_burst wr=1 rd=0 wdata=aa rdata=51 full=1 empty=0
[SCB] BLOCK-WR t=586000 scenario=fill_burst pre_count=16
[DRV] t=590000 scenario=fill_burst wr=1 rd=0 wdata=8b
[MON] t=596000 scenario=fill_burst wr=1 rd=0 wdata=8b rdata=51 full=1 empty=0
[SCB] BLOCK-WR t=596000 scenario=fill_burst pre_count=16
[DRV] t=600000 scenario=fill_burst wr=1 rd=1 wdata=58
[MON] t=606000 scenario=fill_burst wr=1 rd=1 wdata=58 rdata=9b full=1 empty=0
[SCB] PASS-RD t=606000 scenario=fill_burst exp=9b got=9b
[DRV] t=610000 scenario=fill_burst wr=1 rd=1 wdata=a7
[MON] t=616000 scenario=fill_burst wr=1 rd=1 wdata=a7 rdata=f2 full=1 empty=0
[SCB] PASS-RD t=616000 scenario=fill_burst exp=f2 got=f2
[DRV] t=620000 scenario=fill_burst wr=1 rd=0 wdata=bf
[MON] t=626000 scenario=fill_burst wr=1 rd=0 wdata=bf rdata=f2 full=1 empty=0
[SCB] BLOCK-WR t=626000 scenario=fill_burst pre_count=16
[DRV] t=630000 scenario=fill_burst wr=1 rd=0 wdata=cc
[MON] t=636000 scenario=fill_burst wr=1 rd=0 wdata=cc rdata=f2 full=1 empty=0
[SCB] BLOCK-WR t=636000 scenario=fill_burst pre_count=16
[DRV] t=640000 scenario=fill_burst wr=1 rd=0 wdata=23
[MON] t=646000 scenario=fill_burst wr=1 rd=0 wdata=23 rdata=f2 full=1 empty=0
[SCB] BLOCK-WR t=646000 scenario=fill_burst pre_count=16
[DRV] t=650000 scenario=fill_burst wr=1 rd=0 wdata=e1
[MON] t=656000 scenario=fill_burst wr=1 rd=0 wdata=e1 rdata=f2 full=1 empty=0
[SCB] BLOCK-WR t=656000 scenario=fill_burst pre_count=16
[DRV] t=660000 scenario=fill_burst wr=1 rd=1 wdata=dc
[MON] t=666000 scenario=fill_burst wr=1 rd=1 wdata=dc rdata=26 full=1 empty=0
[SCB] PASS-RD t=666000 scenario=fill_burst exp=26 got=26
[GEN][PHASE] iter=64 scenario=simul_stress
[DRV] t=670000 scenario=simul_stress wr=1 rd=1 wdata=33
[MON] t=676000 scenario=simul_stress wr=1 rd=1 wdata=33 rdata=a4 full=1 empty=0
[SCB] PASS-RD t=676000 scenario=simul_stress exp=a4 got=a4
[DRV] t=680000 scenario=simul_stress wr=1 rd=1 wdata=e0
[MON] t=686000 scenario=simul_stress wr=1 rd=1 wdata=e0 rdata=df full=1 empty=0
[SCB] PASS-RD t=686000 scenario=simul_stress exp=df got=df
[DRV] t=690000 scenario=simul_stress wr=1 rd=1 wdata=88
[MON] t=696000 scenario=simul_stress wr=1 rd=1 wdata=88 rdata=91 full=1 empty=0
[SCB] PASS-RD t=696000 scenario=simul_stress exp=91 got=91
[DRV] t=700000 scenario=simul_stress wr=1 rd=1 wdata=3
[MON] t=706000 scenario=simul_stress wr=1 rd=1 wdata=3 rdata=6a full=1 empty=0
[SCB] PASS-RD t=706000 scenario=simul_stress exp=6a got=6a
[DRV] t=710000 scenario=simul_stress wr=1 rd=1 wdata=55
[MON] t=716000 scenario=simul_stress wr=1 rd=1 wdata=55 rdata=a0 full=1 empty=0
[SCB] PASS-RD t=716000 scenario=simul_stress exp=a0 got=a0
[DRV] t=720000 scenario=simul_stress wr=1 rd=1 wdata=53
[MON] t=726000 scenario=simul_stress wr=1 rd=1 wdata=53 rdata=de full=1 empty=0
[SCB] PASS-RD t=726000 scenario=simul_stress exp=de got=de
[DRV] t=730000 scenario=simul_stress wr=1 rd=1 wdata=8a
[MON] t=736000 scenario=simul_stress wr=1 rd=1 wdata=8a rdata=25 full=1 empty=0
[SCB] PASS-RD t=736000 scenario=simul_stress exp=25 got=25
[DRV] t=740000 scenario=simul_stress wr=1 rd=1 wdata=1c
[MON] t=746000 scenario=simul_stress wr=1 rd=1 wdata=1c rdata=ca full=1 empty=0
[SCB] PASS-RD t=746000 scenario=simul_stress exp=ca got=ca
[DRV] t=750000 scenario=simul_stress wr=1 rd=1 wdata=9d
[MON] t=756000 scenario=simul_stress wr=1 rd=1 wdata=9d rdata=2e full=1 empty=0
[SCB] PASS-RD t=756000 scenario=simul_stress exp=2e got=2e
[DRV] t=760000 scenario=simul_stress wr=1 rd=1 wdata=10
[MON] t=766000 scenario=simul_stress wr=1 rd=1 wdata=10 rdata=78 full=1 empty=0
[SCB] PASS-RD t=766000 scenario=simul_stress exp=78 got=78
[DRV] t=770000 scenario=simul_stress wr=1 rd=1 wdata=ab
[MON] t=776000 scenario=simul_stress wr=1 rd=1 wdata=ab rdata=7f full=1 empty=0
[SCB] PASS-RD t=776000 scenario=simul_stress exp=7f got=7f
[DRV] t=780000 scenario=simul_stress wr=1 rd=1 wdata=77
[MON] t=786000 scenario=simul_stress wr=1 rd=1 wdata=77 rdata=a7 full=1 empty=0
[SCB] PASS-RD t=786000 scenario=simul_stress exp=a7 got=a7
[DRV] t=790000 scenario=simul_stress wr=1 rd=1 wdata=85
[MON] t=796000 scenario=simul_stress wr=1 rd=1 wdata=85 rdata=ca full=1 empty=0
[SCB] PASS-RD t=796000 scenario=simul_stress exp=ca got=ca
[DRV] t=800000 scenario=simul_stress wr=1 rd=1 wdata=3
[MON] t=806000 scenario=simul_stress wr=1 rd=1 wdata=3 rdata=58 full=1 empty=0
[SCB] PASS-RD t=806000 scenario=simul_stress exp=58 got=58
[DRV] t=810000 scenario=simul_stress wr=1 rd=1 wdata=b3
[MON] t=816000 scenario=simul_stress wr=1 rd=1 wdata=b3 rdata=a7 full=1 empty=0
[SCB] PASS-RD t=816000 scenario=simul_stress exp=a7 got=a7
[DRV] t=820000 scenario=simul_stress wr=1 rd=1 wdata=57
[MON] t=826000 scenario=simul_stress wr=1 rd=1 wdata=57 rdata=dc full=1 empty=0
[SCB] PASS-RD t=826000 scenario=simul_stress exp=dc got=dc
[DRV] t=830000 scenario=simul_stress wr=1 rd=1 wdata=8e
[MON] t=836000 scenario=simul_stress wr=1 rd=1 wdata=8e rdata=33 full=1 empty=0
[SCB] PASS-RD t=836000 scenario=simul_stress exp=33 got=33
[DRV] t=840000 scenario=simul_stress wr=1 rd=1 wdata=e6
[MON] t=846000 scenario=simul_stress wr=1 rd=1 wdata=e6 rdata=e0 full=1 empty=0
[SCB] PASS-RD t=846000 scenario=simul_stress exp=e0 got=e0
[DRV] t=850000 scenario=simul_stress wr=1 rd=1 wdata=b0
[MON] t=856000 scenario=simul_stress wr=1 rd=1 wdata=b0 rdata=88 full=1 empty=0
[SCB] PASS-RD t=856000 scenario=simul_stress exp=88 got=88
[DRV] t=860000 scenario=simul_stress wr=1 rd=1 wdata=b4
[MON] t=866000 scenario=simul_stress wr=1 rd=1 wdata=b4 rdata=3 full=1 empty=0
[SCB] PASS-RD t=866000 scenario=simul_stress exp=3 got=3
[DRV] t=870000 scenario=simul_stress wr=1 rd=1 wdata=9f
[MON] t=876000 scenario=simul_stress wr=1 rd=1 wdata=9f rdata=55 full=1 empty=0
